; Engine configuration file.
; It's best edited using the editor UI and not directly,
; since the parameters that go here are not all obvious.
;
; Format:
;   [section] ; section goes between []
;   param=value ; assign values to parameters

config_version=4

_global_script_classes=[  ]
_global_script_class_icons={

}

[application]

config/name="La puerta"
run/main_scene="res://niveles/testroom.tscn"
config/icon="res://icon.png"

[display]

window/size/width=800
window/size/height=480
window/stretch/mode="2d"
window/stretch/aspect="keep"

[rendering]

quality/2d/use_pixel_snap=true
vram_compression/import_etc=true
vram_compression/import_etc2=false
environment/default_environment="res://default_env.tres"
