[gd_scene load_steps=66 format=2]

[ext_resource path="res://texturas/01.png" type="Texture" id=1]
[ext_resource path="res://texturas/00.png" type="Texture" id=2]
[ext_resource path="res://scripts/player.gd" type="Script" id=3]
[ext_resource path="res://texturas/jugador/00.png" type="Texture" id=4]
[ext_resource path="res://texturas/jugador/01.png" type="Texture" id=5]
[ext_resource path="res://texturas/jugador/02.png" type="Texture" id=6]
[ext_resource path="res://texturas/objetos/arma.png" type="Texture" id=7]
[ext_resource path="res://texturas/objetos/spot.png" type="Texture" id=8]
[ext_resource path="res://enemigo/enemigo.tscn" type="PackedScene" id=9]

[sub_resource type="TileSet" id=1]
0/name = "01.png 0"
0/texture = ExtResource( 1 )
0/tex_offset = Vector2( 0, 0 )
0/modulate = Color( 1, 1, 1, 1 )
0/region = Rect2( 16, 16, 32, 32 )
0/tile_mode = 0
0/occluder_offset = Vector2( 0, 0 )
0/navigation_offset = Vector2( 0, 0 )
0/shape_offset = Vector2( 0, 0 )
0/shape_transform = Transform2D( 1, 0, 0, 1, 0, 0 )
0/shape_one_way = false
0/shape_one_way_margin = 0.0
0/shapes = [  ]
0/z_index = 0

[sub_resource type="OccluderPolygon2D" id=2]
polygon = PoolVector2Array( 0, 0, 16, 0, 16, 64, 0, 64 )

[sub_resource type="ConvexPolygonShape2D" id=3]
points = PoolVector2Array( 0, 0, 16, 0, 16, 64, 0, 64 )

[sub_resource type="OccluderPolygon2D" id=4]
polygon = PoolVector2Array( 0, 0, 16, 0, 16, 64, 0, 64 )

[sub_resource type="ConvexPolygonShape2D" id=5]
points = PoolVector2Array( 0, 0, 16, 0, 16, 64, 0, 64 )

[sub_resource type="StreamTexture" id=6]
flags = 4

[sub_resource type="OccluderPolygon2D" id=7]
polygon = PoolVector2Array( 0, 0, 64, 0, 64, 16, 0, 16 )

[sub_resource type="ConvexPolygonShape2D" id=8]
points = PoolVector2Array( 0, 0, 64, 0, 64, 16, 0, 16 )

[sub_resource type="StreamTexture" id=9]
flags = 4

[sub_resource type="OccluderPolygon2D" id=10]
polygon = PoolVector2Array( 0, 0, 64, 0, 64, 16, 0, 16 )

[sub_resource type="ConvexPolygonShape2D" id=11]
points = PoolVector2Array( 0, 0, 64, 0, 64, 16, 0, 16 )

[sub_resource type="StreamTexture" id=12]
flags = 4

[sub_resource type="ConvexPolygonShape2D" id=13]
points = PoolVector2Array( 0, 0, 64, 0, 64, 16, 0, 16 )

[sub_resource type="StreamTexture" id=14]
flags = 4

[sub_resource type="OccluderPolygon2D" id=15]
polygon = PoolVector2Array( 0, 0, 64, 0, 64, 16, 0, 16 )

[sub_resource type="ConvexPolygonShape2D" id=16]
points = PoolVector2Array( 0, 0, 64, 0, 64, 16, 0, 16 )

[sub_resource type="StreamTexture" id=17]
flags = 4

[sub_resource type="OccluderPolygon2D" id=18]
polygon = PoolVector2Array( 0, 0, 64, 0, 64, 16, 0, 16 )

[sub_resource type="ConvexPolygonShape2D" id=19]
points = PoolVector2Array( 0, 0, 64, 0, 64, 16, 0, 16 )

[sub_resource type="StreamTexture" id=20]
flags = 4

[sub_resource type="OccluderPolygon2D" id=21]
polygon = PoolVector2Array( 0, 0, 64, 0, 64, 16, 0, 16 )

[sub_resource type="ConvexPolygonShape2D" id=22]
points = PoolVector2Array( 0, 0, 64, 0, 64, 16, 0, 16 )

[sub_resource type="StreamTexture" id=23]
flags = 4

[sub_resource type="OccluderPolygon2D" id=24]
polygon = PoolVector2Array( 0, 0, 64, 0, 64, 16, 0, 16 )

[sub_resource type="ConvexPolygonShape2D" id=25]
points = PoolVector2Array( 0, 0, 64, 0, 64, 16, 0, 16 )

[sub_resource type="OccluderPolygon2D" id=26]
polygon = PoolVector2Array( 0, 0, 64, 0, 64, 64, 0, 64 )

[sub_resource type="ConvexPolygonShape2D" id=27]
points = PoolVector2Array( 0, 0, 64, 0, 64, 64, 0, 64 )

[sub_resource type="OccluderPolygon2D" id=28]
polygon = PoolVector2Array( 0, 0, 16, 0, 16, 64, 0, 64 )

[sub_resource type="ConvexPolygonShape2D" id=29]
points = PoolVector2Array( 0, 0, 16, 0, 16, 64, 0, 64 )

[sub_resource type="StreamTexture" id=30]
flags = 4

[sub_resource type="OccluderPolygon2D" id=31]
polygon = PoolVector2Array( 0, 0, 16, 0, 16, 64, 0, 64 )

[sub_resource type="ConvexPolygonShape2D" id=32]
points = PoolVector2Array( 0, 0, 16, 0, 16, 64, 0, 64 )

[sub_resource type="StreamTexture" id=33]
flags = 4

[sub_resource type="OccluderPolygon2D" id=34]
polygon = PoolVector2Array( 0, 0, 16, 0, 16, 64, 0, 64 )

[sub_resource type="ConvexPolygonShape2D" id=35]
points = PoolVector2Array( 0, 0, 16, 0, 16, 64, 0, 64 )

[sub_resource type="StreamTexture" id=36]
flags = 4

[sub_resource type="OccluderPolygon2D" id=37]
polygon = PoolVector2Array( 0, 0, 16, 0, 16, 64, 0, 64 )

[sub_resource type="ConvexPolygonShape2D" id=38]
points = PoolVector2Array( 0, 0, 16, 0, 16, 64, 0, 64 )

[sub_resource type="StreamTexture" id=39]
flags = 4

[sub_resource type="OccluderPolygon2D" id=40]
polygon = PoolVector2Array( 0, 0, 16, 0, 16, 64, 0, 64 )

[sub_resource type="ConvexPolygonShape2D" id=41]
points = PoolVector2Array( 0, 0, 16, 0, 16, 64, 0, 64 )

[sub_resource type="StreamTexture" id=42]
flags = 4

[sub_resource type="OccluderPolygon2D" id=43]
polygon = PoolVector2Array( 0, 0, 16, 0, 16, 64, 0, 64 )

[sub_resource type="ConvexPolygonShape2D" id=44]
points = PoolVector2Array( 0, 0, 16, 0, 16, 64, 0, 64 )

[sub_resource type="StreamTexture" id=45]
flags = 4

[sub_resource type="OccluderPolygon2D" id=46]
polygon = PoolVector2Array( 0, 0, 64, 0, 64, 16, 0, 16 )

[sub_resource type="ConvexPolygonShape2D" id=47]
points = PoolVector2Array( 0, 0, 64, 0, 64, 16, 0, 16 )

[sub_resource type="StreamTexture" id=48]
flags = 4

[sub_resource type="OccluderPolygon2D" id=49]
polygon = PoolVector2Array( 0, 0, 64, 0, 64, 16, 0, 16 )

[sub_resource type="ConvexPolygonShape2D" id=50]
points = PoolVector2Array( 0, 0, 64, 0, 64, 16, 0, 16 )

[sub_resource type="StreamTexture" id=51]
flags = 4

[sub_resource type="TileSet" id=52]
0/name = "01.png 0"
0/texture = ExtResource( 1 )
0/tex_offset = Vector2( 0, 0 )
0/modulate = Color( 1, 1, 1, 1 )
0/region = Rect2( 0, 0, 16, 64 )
0/tile_mode = 0
0/occluder_offset = Vector2( 0, 0 )
0/occluder = SubResource( 2 )
0/navigation_offset = Vector2( 0, 0 )
0/shape_offset = Vector2( 0, 0 )
0/shape_transform = Transform2D( 1, 0, 0, 1, 0, 0 )
0/shape = SubResource( 3 )
0/shape_one_way = false
0/shape_one_way_margin = 1.0
0/shapes = [ {
"autotile_coord": Vector2( 0, 0 ),
"one_way": false,
"one_way_margin": 1.0,
"shape": SubResource( 3 ),
"shape_transform": Transform2D( 1, 0, 0, 1, 0, 0 )
} ]
0/z_index = 0
1/name = "02.png 1"
1/texture = SubResource( 6 )
1/tex_offset = Vector2( 0, 0 )
1/modulate = Color( 1, 1, 1, 1 )
1/region = Rect2( 0, 0, 16, 64 )
1/tile_mode = 0
1/occluder_offset = Vector2( 0, 0 )
1/occluder = SubResource( 4 )
1/navigation_offset = Vector2( 0, 0 )
1/shape_offset = Vector2( 0, 0 )
1/shape_transform = Transform2D( 1, 0, 0, 1, 0, 0 )
1/shape = SubResource( 5 )
1/shape_one_way = false
1/shape_one_way_margin = 1.0
1/shapes = [ {
"autotile_coord": Vector2( 0, 0 ),
"one_way": false,
"one_way_margin": 1.0,
"shape": SubResource( 5 ),
"shape_transform": Transform2D( 1, 0, 0, 1, 0, 0 )
} ]
1/z_index = 0
2/name = "03.png 2"
2/texture = SubResource( 30 )
2/tex_offset = Vector2( 0, 0 )
2/modulate = Color( 1, 1, 1, 1 )
2/region = Rect2( 0, 0, 16, 64 )
2/tile_mode = 0
2/occluder_offset = Vector2( 0, 0 )
2/occluder = SubResource( 28 )
2/navigation_offset = Vector2( 0, 0 )
2/shape_offset = Vector2( 0, 0 )
2/shape_transform = Transform2D( 1, 0, 0, 1, 0, 0 )
2/shape = SubResource( 29 )
2/shape_one_way = false
2/shape_one_way_margin = 1.0
2/shapes = [ {
"autotile_coord": Vector2( 0, 0 ),
"one_way": false,
"one_way_margin": 1.0,
"shape": SubResource( 29 ),
"shape_transform": Transform2D( 1, 0, 0, 1, 0, 0 )
} ]
2/z_index = 0
3/name = "04.png 3"
3/texture = SubResource( 33 )
3/tex_offset = Vector2( 0, 0 )
3/modulate = Color( 1, 1, 1, 1 )
3/region = Rect2( 0, 0, 16, 64 )
3/tile_mode = 0
3/occluder_offset = Vector2( 0, 0 )
3/occluder = SubResource( 31 )
3/navigation_offset = Vector2( 0, 0 )
3/shape_offset = Vector2( 0, 0 )
3/shape_transform = Transform2D( 1, 0, 0, 1, 0, 0 )
3/shape = SubResource( 32 )
3/shape_one_way = false
3/shape_one_way_margin = 1.0
3/shapes = [ {
"autotile_coord": Vector2( 0, 0 ),
"one_way": false,
"one_way_margin": 1.0,
"shape": SubResource( 32 ),
"shape_transform": Transform2D( 1, 0, 0, 1, 0, 0 )
} ]
3/z_index = 0
4/name = "05.png 4"
4/texture = SubResource( 36 )
4/tex_offset = Vector2( 0, 0 )
4/modulate = Color( 1, 1, 1, 1 )
4/region = Rect2( 0, 0, 64, 64 )
4/tile_mode = 0
4/occluder_offset = Vector2( 0, 0 )
4/occluder = SubResource( 34 )
4/navigation_offset = Vector2( 0, 0 )
4/shape_offset = Vector2( 0, 0 )
4/shape_transform = Transform2D( 1, 0, 0, 1, 0, 0 )
4/shape = SubResource( 35 )
4/shape_one_way = false
4/shape_one_way_margin = 1.0
4/shapes = [ {
"autotile_coord": Vector2( 0, 0 ),
"one_way": false,
"one_way_margin": 1.0,
"shape": SubResource( 35 ),
"shape_transform": Transform2D( 1, 0, 0, 1, 0, 0 )
} ]
4/z_index = 0
5/name = "06.png 5"
5/texture = SubResource( 39 )
5/tex_offset = Vector2( 0, 0 )
5/modulate = Color( 1, 1, 1, 1 )
5/region = Rect2( 0, 0, 64, 64 )
5/tile_mode = 0
5/occluder_offset = Vector2( 0, 0 )
5/occluder = SubResource( 37 )
5/navigation_offset = Vector2( 0, 0 )
5/shape_offset = Vector2( 0, 0 )
5/shape_transform = Transform2D( 1, 0, 0, 1, 0, 0 )
5/shape = SubResource( 38 )
5/shape_one_way = false
5/shape_one_way_margin = 1.0
5/shapes = [ {
"autotile_coord": Vector2( 0, 0 ),
"one_way": false,
"one_way_margin": 1.0,
"shape": SubResource( 38 ),
"shape_transform": Transform2D( 1, 0, 0, 1, 0, 0 )
} ]
5/z_index = 0
6/name = "07.png 6"
6/texture = SubResource( 42 )
6/tex_offset = Vector2( 0, 0 )
6/modulate = Color( 1, 1, 1, 1 )
6/region = Rect2( 0, 0, 64, 64 )
6/tile_mode = 0
6/occluder_offset = Vector2( 0, 0 )
6/occluder = SubResource( 40 )
6/navigation_offset = Vector2( 0, 0 )
6/shape_offset = Vector2( 0, 0 )
6/shape_transform = Transform2D( 1, 0, 0, 1, 0, 0 )
6/shape = SubResource( 41 )
6/shape_one_way = false
6/shape_one_way_margin = 1.0
6/shapes = [ {
"autotile_coord": Vector2( 0, 0 ),
"one_way": false,
"one_way_margin": 1.0,
"shape": SubResource( 41 ),
"shape_transform": Transform2D( 1, 0, 0, 1, 0, 0 )
} ]
6/z_index = 0
7/name = "08.png 7"
7/texture = SubResource( 45 )
7/tex_offset = Vector2( 0, 0 )
7/modulate = Color( 1, 1, 1, 1 )
7/region = Rect2( 0, 0, 64, 64 )
7/tile_mode = 0
7/occluder_offset = Vector2( 0, 0 )
7/occluder = SubResource( 43 )
7/navigation_offset = Vector2( 0, 0 )
7/shape_offset = Vector2( 0, 0 )
7/shape_transform = Transform2D( 1, 0, 0, 1, 0, 0 )
7/shape = SubResource( 44 )
7/shape_one_way = false
7/shape_one_way_margin = 1.0
7/shapes = [ {
"autotile_coord": Vector2( 0, 0 ),
"one_way": false,
"one_way_margin": 1.0,
"shape": SubResource( 44 ),
"shape_transform": Transform2D( 1, 0, 0, 1, 0, 0 )
} ]
7/z_index = 0
8/name = "09.png 8"
8/texture = SubResource( 48 )
8/tex_offset = Vector2( 0, 0 )
8/modulate = Color( 1, 1, 1, 1 )
8/region = Rect2( 0, 0, 64, 16 )
8/tile_mode = 0
8/occluder_offset = Vector2( 0, 0 )
8/occluder = SubResource( 46 )
8/navigation_offset = Vector2( 0, 0 )
8/shape_offset = Vector2( 0, 0 )
8/shape_transform = Transform2D( 1, 0, 0, 1, 0, 0 )
8/shape = SubResource( 47 )
8/shape_one_way = false
8/shape_one_way_margin = 1.0
8/shapes = [ {
"autotile_coord": Vector2( 0, 0 ),
"one_way": false,
"one_way_margin": 1.0,
"shape": SubResource( 47 ),
"shape_transform": Transform2D( 1, 0, 0, 1, 0, 0 )
} ]
8/z_index = 0
9/name = "10.png 9"
9/texture = SubResource( 51 )
9/tex_offset = Vector2( 0, 0 )
9/modulate = Color( 1, 1, 1, 1 )
9/region = Rect2( 0, 0, 64, 16 )
9/tile_mode = 0
9/occluder_offset = Vector2( 0, 0 )
9/occluder = SubResource( 49 )
9/navigation_offset = Vector2( 0, 0 )
9/shape_offset = Vector2( 0, 0 )
9/shape_transform = Transform2D( 1, 0, 0, 1, 0, 0 )
9/shape = SubResource( 50 )
9/shape_one_way = false
9/shape_one_way_margin = 1.0
9/shapes = [ {
"autotile_coord": Vector2( 0, 0 ),
"one_way": false,
"one_way_margin": 1.0,
"shape": SubResource( 50 ),
"shape_transform": Transform2D( 1, 0, 0, 1, 0, 0 )
} ]
9/z_index = 0
10/name = "16.png 10"
10/texture = SubResource( 9 )
10/tex_offset = Vector2( 0, 0 )
10/modulate = Color( 1, 1, 1, 1 )
10/region = Rect2( 0, 48, 64, 16 )
10/tile_mode = 0
10/occluder_offset = Vector2( 0, 0 )
10/occluder = SubResource( 7 )
10/navigation_offset = Vector2( 0, 0 )
10/shape_offset = Vector2( 0, 0 )
10/shape_transform = Transform2D( 1, 0, 0, 1, 0, 0 )
10/shape = SubResource( 8 )
10/shape_one_way = false
10/shape_one_way_margin = 1.0
10/shapes = [ {
"autotile_coord": Vector2( 0, 0 ),
"one_way": false,
"one_way_margin": 1.0,
"shape": SubResource( 8 ),
"shape_transform": Transform2D( 1, 0, 0, 1, 0, 0 )
} ]
10/z_index = 0
11/name = "11.png 11"
11/texture = SubResource( 12 )
11/tex_offset = Vector2( 0, 0 )
11/modulate = Color( 1, 1, 1, 1 )
11/region = Rect2( 0, 0, 64, 16 )
11/tile_mode = 0
11/occluder_offset = Vector2( 0, 0 )
11/occluder = SubResource( 10 )
11/navigation_offset = Vector2( 0, 0 )
11/shape_offset = Vector2( 0, 0 )
11/shape_transform = Transform2D( 1, 0, 0, 1, 0, 0 )
11/shape = SubResource( 11 )
11/shape_one_way = false
11/shape_one_way_margin = 1.0
11/shapes = [ {
"autotile_coord": Vector2( 0, 0 ),
"one_way": false,
"one_way_margin": 1.0,
"shape": SubResource( 11 ),
"shape_transform": Transform2D( 1, 0, 0, 1, 0, 0 )
} ]
11/z_index = 0
12/name = "12.png 12"
12/texture = SubResource( 14 )
12/tex_offset = Vector2( 0, 0 )
12/modulate = Color( 1, 1, 1, 1 )
12/region = Rect2( 0, 0, 64, 16 )
12/tile_mode = 0
12/occluder_offset = Vector2( 0, 0 )
12/navigation_offset = Vector2( 0, 0 )
12/shape_offset = Vector2( 0, 0 )
12/shape_transform = Transform2D( 1, 0, 0, 1, 0, 0 )
12/shape = SubResource( 13 )
12/shape_one_way = false
12/shape_one_way_margin = 1.0
12/shapes = [ {
"autotile_coord": Vector2( 0, 0 ),
"one_way": false,
"one_way_margin": 1.0,
"shape": SubResource( 13 ),
"shape_transform": Transform2D( 1, 0, 0, 1, 0, 0 )
} ]
12/z_index = 0
13/name = "13.png 13"
13/texture = SubResource( 17 )
13/tex_offset = Vector2( 0, 0 )
13/modulate = Color( 1, 1, 1, 1 )
13/region = Rect2( 0, 48, 64, 16 )
13/tile_mode = 0
13/occluder_offset = Vector2( 0, 0 )
13/occluder = SubResource( 15 )
13/navigation_offset = Vector2( 0, 0 )
13/shape_offset = Vector2( 0, 0 )
13/shape_transform = Transform2D( 1, 0, 0, 1, 0, 0 )
13/shape = SubResource( 16 )
13/shape_one_way = false
13/shape_one_way_margin = 1.0
13/shapes = [ {
"autotile_coord": Vector2( 0, 0 ),
"one_way": false,
"one_way_margin": 1.0,
"shape": SubResource( 16 ),
"shape_transform": Transform2D( 1, 0, 0, 1, 0, 0 )
} ]
13/z_index = 0
14/name = "14.png 14"
14/texture = SubResource( 20 )
14/tex_offset = Vector2( 0, 0 )
14/modulate = Color( 1, 1, 1, 1 )
14/region = Rect2( 0, 48, 64, 16 )
14/tile_mode = 0
14/occluder_offset = Vector2( 0, 0 )
14/occluder = SubResource( 18 )
14/navigation_offset = Vector2( 0, 0 )
14/shape_offset = Vector2( 0, 0 )
14/shape_transform = Transform2D( 1, 0, 0, 1, 0, 0 )
14/shape = SubResource( 19 )
14/shape_one_way = false
14/shape_one_way_margin = 1.0
14/shapes = [ {
"autotile_coord": Vector2( 0, 0 ),
"one_way": false,
"one_way_margin": 1.0,
"shape": SubResource( 19 ),
"shape_transform": Transform2D( 1, 0, 0, 1, 0, 0 )
} ]
14/z_index = 0
15/name = "15.png 15"
15/texture = SubResource( 23 )
15/tex_offset = Vector2( 0, 0 )
15/modulate = Color( 1, 1, 1, 1 )
15/region = Rect2( 0, 48, 64, 16 )
15/tile_mode = 0
15/occluder_offset = Vector2( 0, 0 )
15/occluder = SubResource( 21 )
15/navigation_offset = Vector2( 0, 0 )
15/shape_offset = Vector2( 0, 0 )
15/shape_transform = Transform2D( 1, 0, 0, 1, 0, 0 )
15/shape = SubResource( 22 )
15/shape_one_way = false
15/shape_one_way_margin = 1.0
15/shapes = [ {
"autotile_coord": Vector2( 0, 0 ),
"one_way": false,
"one_way_margin": 1.0,
"shape": SubResource( 22 ),
"shape_transform": Transform2D( 1, 0, 0, 1, 0, 0 )
} ]
15/z_index = 0
16/name = "16.png 16"
16/texture = SubResource( 9 )
16/tex_offset = Vector2( 0, 0 )
16/modulate = Color( 1, 1, 1, 1 )
16/region = Rect2( 0, 48, 64, 16 )
16/tile_mode = 0
16/occluder_offset = Vector2( 0, 0 )
16/occluder = SubResource( 24 )
16/navigation_offset = Vector2( 0, 0 )
16/shape_offset = Vector2( 0, 0 )
16/shape_transform = Transform2D( 1, 0, 0, 1, 0, 0 )
16/shape = SubResource( 25 )
16/shape_one_way = false
16/shape_one_way_margin = 1.0
16/shapes = [ {
"autotile_coord": Vector2( 0, 0 ),
"one_way": false,
"one_way_margin": 1.0,
"shape": SubResource( 25 ),
"shape_transform": Transform2D( 1, 0, 0, 1, 0, 0 )
} ]
16/z_index = 0
17/name = "00.png 17"
17/texture = ExtResource( 2 )
17/tex_offset = Vector2( 0, 0 )
17/modulate = Color( 1, 1, 1, 1 )
17/region = Rect2( 0, 0, 64, 64 )
17/tile_mode = 0
17/occluder_offset = Vector2( 0, 0 )
17/occluder = SubResource( 26 )
17/navigation_offset = Vector2( 0, 0 )
17/shape_offset = Vector2( 0, 0 )
17/shape_transform = Transform2D( 1, 0, 0, 1, 0, 0 )
17/shape = SubResource( 27 )
17/shape_one_way = false
17/shape_one_way_margin = 1.0
17/shapes = [ {
"autotile_coord": Vector2( 0, 0 ),
"one_way": false,
"one_way_margin": 1.0,
"shape": SubResource( 27 ),
"shape_transform": Transform2D( 1, 0, 0, 1, 0, 0 )
} ]
17/z_index = 0

[sub_resource type="SpriteFrames" id=53]
animations = [ {
"frames": [ ExtResource( 5 ) ],
"loop": true,
"name": "parado",
"speed": 5.0
}, {
"frames": [ ExtResource( 4 ), ExtResource( 5 ), ExtResource( 6 ), ExtResource( 5 ) ],
"loop": true,
"name": "caminar",
"speed": 8.0
} ]

[sub_resource type="CircleShape2D" id=54]
radius = 6.5058

[sub_resource type="NavigationPolygon" id=55]
vertices = PoolVector2Array( 0, 0, 32, 0, 32, 32, 0, 32 )
polygons = [ PoolIntArray( 0, 1, 2, 3 ) ]

[sub_resource type="TileSet" id=56]
0/name = "01.png 0"
0/texture = ExtResource( 1 )
0/tex_offset = Vector2( 0, 0 )
0/modulate = Color( 0.176471, 0.878431, 0, 0.560784 )
0/region = Rect2( 16, 16, 32, 32 )
0/tile_mode = 0
0/occluder_offset = Vector2( 0, 0 )
0/navigation_offset = Vector2( 0, 0 )
0/navigation = SubResource( 55 )
0/shape_offset = Vector2( 0, 0 )
0/shape_transform = Transform2D( 1, 0, 0, 1, 0, 0 )
0/shape_one_way = false
0/shape_one_way_margin = 0.0
0/shapes = [  ]
0/z_index = 0

[node name="testroom" type="Node2D"]

[node name="suelo" type="TileMap" parent="."]
modulate = Color( 0.560784, 0.470588, 0.470588, 1 )
tile_set = SubResource( 1 )
cell_size = Vector2( 32, 32 )
format = 1
tile_data = PoolIntArray( 131074, -1610612736, 0, 131075, -1610612736, 0, 131076, -1610612736, 0, 131077, -1610612736, 0, 131078, -1610612736, 0, 131079, -1610612736, 0, 131080, -1610612736, 0, 131081, -1610612736, 0, 131082, -1610612736, 0, 131083, -1610612736, 0, 131084, -1610612736, 0, 131085, -1610612736, 0, 131086, -1610612736, 0, 131087, -1610612736, 0, 131088, -1610612736, 0, 131089, -1610612736, 0, 131090, -1610612736, 0, 131091, -1610612736, 0, 131092, -1610612736, 0, 131093, -1610612736, 0, 131094, -1610612736, 0, 131095, -1610612736, 0, 131096, -1610612736, 0, 131097, -1610612736, 0, 131098, -1610612736, 0, 131099, -1610612736, 0, 131100, -1610612736, 0, 131101, -1610612736, 0, 131118, 0, 0, 131119, 0, 0, 131120, 0, 0, 131121, 0, 0, 131122, 0, 0, 131123, 0, 0, 131124, 0, 0, 131125, 0, 0, 131126, 0, 0, 131127, 0, 0, 131156, 0, 0, 131157, 0, 0, 131158, 0, 0, 131159, 0, 0, 131160, 0, 0, 131161, 0, 0, 131162, 0, 0, 131163, 0, 0, 131164, 0, 0, 131165, 0, 0, 131166, 0, 0, 131167, 0, 0, 131168, 0, 0, 131169, 0, 0, 131170, 0, 0, 131171, 0, 0, 131172, 0, 0, 131173, 0, 0, 131174, 0, 0, 131175, 0, 0, 131176, 0, 0, 131177, 0, 0, 131178, 0, 0, 131179, 0, 0, 131180, 0, 0, 131181, 0, 0, 131182, 0, 0, 131183, 0, 0, 131184, 0, 0, 131185, 0, 0, 131186, 0, 0, 131187, 0, 0, 131188, 0, 0, 131189, 0, 0, 196610, -1610612736, 0, 196611, -1610612736, 0, 196612, -1610612736, 0, 196613, -1610612736, 0, 196614, -1610612736, 0, 196615, -1610612736, 0, 196616, -1610612736, 0, 196617, -1610612736, 0, 196618, -1610612736, 0, 196619, -1610612736, 0, 196620, -1610612736, 0, 196621, -1610612736, 0, 196622, -1610612736, 0, 196623, -1610612736, 0, 196624, -1610612736, 0, 196625, -1610612736, 0, 196626, -1610612736, 0, 196627, -1610612736, 0, 196628, -1610612736, 0, 196629, -1610612736, 0, 196630, -1610612736, 0, 196631, -1610612736, 0, 196632, -1610612736, 0, 196633, -1610612736, 0, 196634, -1610612736, 0, 196635, -1610612736, 0, 196636, -1610612736, 0, 196637, -1610612736, 0, 196654, 0, 0, 196655, 0, 0, 196656, 0, 0, 196657, 0, 0, 196658, 0, 0, 196659, 0, 0, 196660, 0, 0, 196661, 0, 0, 196662, 0, 0, 196663, 0, 0, 196692, 0, 0, 196693, 0, 0, 196694, 0, 0, 196695, 0, 0, 196696, 0, 0, 196697, 0, 0, 196698, 0, 0, 196699, 0, 0, 196700, 0, 0, 196701, 0, 0, 196702, 0, 0, 196703, 0, 0, 196704, 0, 0, 196705, 0, 0, 196706, 0, 0, 196707, 0, 0, 196708, 0, 0, 196709, 0, 0, 196710, 0, 0, 196711, 0, 0, 196712, 0, 0, 196713, 0, 0, 196714, 0, 0, 196715, 0, 0, 196716, 0, 0, 196717, 0, 0, 196718, 0, 0, 196719, 0, 0, 196720, 0, 0, 196721, 0, 0, 196722, 0, 0, 196723, 0, 0, 196724, 0, 0, 196725, 0, 0, 262146, -1610612736, 0, 262147, -1610612736, 0, 262148, -1610612736, 0, 262149, -1610612736, 0, 262150, -1610612736, 0, 262151, -1610612736, 0, 262152, -1610612736, 0, 262153, -1610612736, 0, 262154, -1610612736, 0, 262155, -1610612736, 0, 262156, -1610612736, 0, 262157, -1610612736, 0, 262158, -1610612736, 0, 262159, -1610612736, 0, 262160, -1610612736, 0, 262161, -1610612736, 0, 262162, -1610612736, 0, 262163, -1610612736, 0, 262164, -1610612736, 0, 262165, -1610612736, 0, 262166, -1610612736, 0, 262167, -1610612736, 0, 262168, -1610612736, 0, 262169, -1610612736, 0, 262170, -1610612736, 0, 262171, -1610612736, 0, 262172, -1610612736, 0, 262173, -1610612736, 0, 262190, 0, 0, 262191, 0, 0, 262192, 0, 0, 262193, 0, 0, 262194, 0, 0, 262195, 0, 0, 262196, 0, 0, 262197, 0, 0, 262198, 0, 0, 262199, 0, 0, 262200, 0, 0, 262201, 0, 0, 262202, 0, 0, 262203, 0, 0, 262204, 0, 0, 262205, 0, 0, 262206, 0, 0, 262207, 0, 0, 262208, 0, 0, 262209, 0, 0, 262210, 0, 0, 262211, 0, 0, 262212, 0, 0, 262213, 0, 0, 262214, 0, 0, 262215, 0, 0, 262216, 0, 0, 262217, 0, 0, 262218, 0, 0, 262219, 0, 0, 262220, 0, 0, 262221, 0, 0, 262222, 0, 0, 262223, 0, 0, 262224, 0, 0, 262225, 0, 0, 262228, 0, 0, 262229, 0, 0, 262230, 0, 0, 262231, 0, 0, 262232, 0, 0, 262233, 0, 0, 262234, 0, 0, 262235, 0, 0, 262236, 0, 0, 262237, 0, 0, 262238, 0, 0, 262239, 0, 0, 262240, 0, 0, 262241, 0, 0, 262242, 0, 0, 262243, 0, 0, 262244, 0, 0, 262245, 0, 0, 262246, 0, 0, 262247, 0, 0, 262248, 0, 0, 262249, 0, 0, 262250, 0, 0, 262251, 0, 0, 262252, 0, 0, 262253, 0, 0, 262254, 0, 0, 262255, 0, 0, 262256, 0, 0, 262257, 0, 0, 262258, 0, 0, 262259, 0, 0, 262260, 0, 0, 262261, 0, 0, 327682, -1610612736, 0, 327683, -1610612736, 0, 327684, -1610612736, 0, 327685, -1610612736, 0, 327686, -1610612736, 0, 327687, -1610612736, 0, 327688, -1610612736, 0, 327689, -1610612736, 0, 327690, -1610612736, 0, 327691, -1610612736, 0, 327692, -1610612736, 0, 327693, -1610612736, 0, 327694, -1610612736, 0, 327695, -1610612736, 0, 327696, -1610612736, 0, 327697, -1610612736, 0, 327698, -1610612736, 0, 327699, -1610612736, 0, 327700, -1610612736, 0, 327701, -1610612736, 0, 327702, -1610612736, 0, 327703, -1610612736, 0, 327704, -1610612736, 0, 327705, -1610612736, 0, 327706, -1610612736, 0, 327707, -1610612736, 0, 327708, -1610612736, 0, 327709, -1610612736, 0, 327726, 0, 0, 327727, 0, 0, 327728, 0, 0, 327729, 0, 0, 327730, 0, 0, 327731, 0, 0, 327732, 0, 0, 327733, 0, 0, 327734, 0, 0, 327735, 0, 0, 327736, 0, 0, 327737, 0, 0, 327738, 0, 0, 327739, 0, 0, 327740, 0, 0, 327741, 0, 0, 327742, 0, 0, 327743, 0, 0, 327744, 0, 0, 327745, 0, 0, 327746, 0, 0, 327747, 0, 0, 327748, 0, 0, 327749, 0, 0, 327750, 0, 0, 327751, 0, 0, 327752, 0, 0, 327753, 0, 0, 327754, 0, 0, 327755, 0, 0, 327756, 0, 0, 327757, 0, 0, 327758, 0, 0, 327759, 0, 0, 327760, 0, 0, 327761, 0, 0, 327764, 0, 0, 327765, 0, 0, 327766, 0, 0, 327767, 0, 0, 327768, 0, 0, 327769, 0, 0, 327770, 0, 0, 327771, 0, 0, 327772, 0, 0, 327773, 0, 0, 327774, 0, 0, 327775, 0, 0, 327776, 0, 0, 327777, 0, 0, 327778, 0, 0, 327779, 0, 0, 327780, 0, 0, 327781, 0, 0, 327782, 0, 0, 327783, 0, 0, 327784, 0, 0, 327785, 0, 0, 327786, 0, 0, 327787, 0, 0, 327788, 0, 0, 327789, 0, 0, 327790, 0, 0, 327791, 0, 0, 327792, 0, 0, 327793, 0, 0, 327794, 0, 0, 327795, 0, 0, 327796, 0, 0, 327797, 0, 0, 393218, -1610612736, 0, 393219, -1610612736, 0, 393220, -1610612736, 0, 393221, -1610612736, 0, 393222, -1610612736, 0, 393223, -1610612736, 0, 393224, -1610612736, 0, 393225, -1610612736, 0, 393226, -1610612736, 0, 393227, -1610612736, 0, 393228, -1610612736, 0, 393229, -1610612736, 0, 393230, -1610612736, 0, 393231, -1610612736, 0, 393232, -1610612736, 0, 393233, -1610612736, 0, 393234, -1610612736, 0, 393235, -1610612736, 0, 393236, -1610612736, 0, 393237, -1610612736, 0, 393238, -1610612736, 0, 393239, -1610612736, 0, 393240, -1610612736, 0, 393241, -1610612736, 0, 393242, -1610612736, 0, 393243, -1610612736, 0, 393244, -1610612736, 0, 393245, -1610612736, 0, 393262, 0, 0, 393263, 0, 0, 393264, 0, 0, 393265, 0, 0, 393266, 0, 0, 393267, 0, 0, 393268, 0, 0, 393269, 0, 0, 393270, 0, 0, 393271, 0, 0, 393286, 0, 0, 393287, 0, 0, 393290, 0, 0, 393291, 0, 0, 393292, 0, 0, 393293, 0, 0, 393294, 0, 0, 393295, 0, 0, 393296, 0, 0, 393297, 0, 0, 393300, 0, 0, 393301, 0, 0, 393302, 0, 0, 393303, 0, 0, 393304, 0, 0, 393305, 0, 0, 393306, 0, 0, 393307, 0, 0, 393308, 0, 0, 393309, 0, 0, 393310, 0, 0, 393311, 0, 0, 393312, 0, 0, 393313, 0, 0, 393314, 0, 0, 393315, 0, 0, 393316, 0, 0, 393317, 0, 0, 393318, 0, 0, 393319, 0, 0, 393320, 0, 0, 393321, 0, 0, 393322, 0, 0, 393323, 0, 0, 393324, 0, 0, 393325, 0, 0, 393326, 0, 0, 393327, 0, 0, 393328, 0, 0, 393329, 0, 0, 393330, 0, 0, 393331, 0, 0, 393332, 0, 0, 393333, 0, 0, 458754, -1610612736, 0, 458755, -1610612736, 0, 458756, -1610612736, 0, 458757, -1610612736, 0, 458758, -1610612736, 0, 458759, -1610612736, 0, 458760, -1610612736, 0, 458761, -1610612736, 0, 458762, -1610612736, 0, 458763, -1610612736, 0, 458764, -1610612736, 0, 458765, -1610612736, 0, 458766, -1610612736, 0, 458767, -1610612736, 0, 458768, -1610612736, 0, 458769, -1610612736, 0, 458770, -1610612736, 0, 458771, -1610612736, 0, 458772, -1610612736, 0, 458773, -1610612736, 0, 458774, -1610612736, 0, 458775, -1610612736, 0, 458776, -1610612736, 0, 458777, -1610612736, 0, 458778, -1610612736, 0, 458779, -1610612736, 0, 458780, -1610612736, 0, 458781, -1610612736, 0, 458798, 0, 0, 458799, 0, 0, 458800, 0, 0, 458801, 0, 0, 458802, 0, 0, 458803, 0, 0, 458804, 0, 0, 458805, 0, 0, 458806, 0, 0, 458807, 0, 0, 458822, 0, 0, 458823, 0, 0, 458826, 0, 0, 458827, 0, 0, 458828, 0, 0, 458829, 0, 0, 458830, 0, 0, 458831, 0, 0, 458832, 0, 0, 458833, 0, 0, 458836, 0, 0, 458837, 0, 0, 458838, 0, 0, 458839, 0, 0, 458840, 0, 0, 458841, 0, 0, 458842, 0, 0, 458843, 0, 0, 458844, 0, 0, 458845, 0, 0, 458846, 0, 0, 458847, 0, 0, 458848, 0, 0, 458849, 0, 0, 458850, 0, 0, 458851, 0, 0, 458852, 0, 0, 458853, 0, 0, 458854, 0, 0, 458855, 0, 0, 458856, 0, 0, 458857, 0, 0, 458858, 0, 0, 458859, 0, 0, 458860, 0, 0, 458861, 0, 0, 458862, 0, 0, 458863, 0, 0, 458864, 0, 0, 458865, 0, 0, 458866, 0, 0, 458867, 0, 0, 458868, 0, 0, 458869, 0, 0, 524290, -1610612736, 0, 524291, -1610612736, 0, 524292, -1610612736, 0, 524293, -1610612736, 0, 524294, -1610612736, 0, 524295, -1610612736, 0, 524296, -1610612736, 0, 524297, -1610612736, 0, 524298, -1610612736, 0, 524299, -1610612736, 0, 524300, -1610612736, 0, 524301, -1610612736, 0, 524302, -1610612736, 0, 524303, -1610612736, 0, 524304, -1610612736, 0, 524305, -1610612736, 0, 524306, -1610612736, 0, 524307, -1610612736, 0, 524308, -1610612736, 0, 524309, -1610612736, 0, 524310, -1610612736, 0, 524311, -1610612736, 0, 524312, -1610612736, 0, 524313, -1610612736, 0, 524314, -1610612736, 0, 524315, -1610612736, 0, 524316, -1610612736, 0, 524317, -1610612736, 0, 524334, 0, 0, 524335, 0, 0, 524336, 0, 0, 524337, 0, 0, 524358, 0, 0, 524359, 0, 0, 524362, 0, 0, 524363, 0, 0, 524364, 0, 0, 524365, 0, 0, 524366, 0, 0, 524367, 0, 0, 524368, 0, 0, 524369, 0, 0, 524372, 0, 0, 524373, 0, 0, 524374, 0, 0, 524375, 0, 0, 524376, 0, 0, 524377, 0, 0, 524378, 0, 0, 524379, 0, 0, 524380, 0, 0, 524381, 0, 0, 524382, 0, 0, 524383, 0, 0, 524384, 0, 0, 524385, 0, 0, 524386, 0, 0, 524387, 0, 0, 524388, 0, 0, 524389, 0, 0, 524390, 0, 0, 524391, 0, 0, 524392, 0, 0, 524393, 0, 0, 524394, 0, 0, 524395, 0, 0, 524396, 0, 0, 524397, 0, 0, 524398, 0, 0, 524399, 0, 0, 524400, 0, 0, 524401, 0, 0, 524402, 0, 0, 524403, 0, 0, 524404, 0, 0, 524405, 0, 0, 589826, -1610612736, 0, 589827, -1610612736, 0, 589828, -1610612736, 0, 589829, -1610612736, 0, 589830, -1610612736, 0, 589831, -1610612736, 0, 589832, -1610612736, 0, 589833, -1610612736, 0, 589834, -1610612736, 0, 589835, -1610612736, 0, 589836, -1610612736, 0, 589837, -1610612736, 0, 589838, -1610612736, 0, 589839, -1610612736, 0, 589840, -1610612736, 0, 589841, -1610612736, 0, 589842, -1610612736, 0, 589843, -1610612736, 0, 589844, -1610612736, 0, 589845, -1610612736, 0, 589846, -1610612736, 0, 589847, -1610612736, 0, 589848, -1610612736, 0, 589849, -1610612736, 0, 589850, -1610612736, 0, 589851, -1610612736, 0, 589852, -1610612736, 0, 589853, -1610612736, 0, 589870, 0, 0, 589871, 0, 0, 589872, 0, 0, 589873, 0, 0, 589894, 0, 0, 589895, 0, 0, 589898, 0, 0, 589899, 0, 0, 589900, 0, 0, 589901, 0, 0, 589902, 0, 0, 589903, 0, 0, 589904, 0, 0, 589905, 0, 0, 589908, 0, 0, 589909, 0, 0, 589910, 0, 0, 589911, 0, 0, 589912, 0, 0, 589913, 0, 0, 589914, 0, 0, 589915, 0, 0, 589916, 0, 0, 589917, 0, 0, 589918, 0, 0, 589919, 0, 0, 589920, 0, 0, 589921, 0, 0, 589922, 0, 0, 589923, 0, 0, 589924, 0, 0, 589925, 0, 0, 589926, 0, 0, 589927, 0, 0, 589928, 0, 0, 589929, 0, 0, 589930, 0, 0, 589931, 0, 0, 589932, 0, 0, 589933, 0, 0, 589934, 0, 0, 589935, 0, 0, 589936, 0, 0, 589937, 0, 0, 589938, 0, 0, 589939, 0, 0, 589940, 0, 0, 589941, 0, 0, 655362, -1610612736, 0, 655363, -1610612736, 0, 655364, -1610612736, 0, 655365, -1610612736, 0, 655366, -1610612736, 0, 655367, -1610612736, 0, 655368, -1610612736, 0, 655369, -1610612736, 0, 655370, -1610612736, 0, 655371, -1610612736, 0, 655372, -1610612736, 0, 655373, -1610612736, 0, 655374, -1610612736, 0, 655375, -1610612736, 0, 655376, -1610612736, 0, 655377, -1610612736, 0, 655378, -1610612736, 0, 655379, -1610612736, 0, 655380, -1610612736, 0, 655381, -1610612736, 0, 655382, -1610612736, 0, 655383, -1610612736, 0, 655384, -1610612736, 0, 655385, -1610612736, 0, 655386, -1610612736, 0, 655387, -1610612736, 0, 655388, -1610612736, 0, 655389, -1610612736, 0, 655406, 0, 0, 655407, 0, 0, 655408, 0, 0, 655409, 0, 0, 655430, 0, 0, 655431, 0, 0, 655434, 0, 0, 655435, 0, 0, 655436, 0, 0, 655437, 0, 0, 655438, 0, 0, 655439, 0, 0, 655440, 0, 0, 655441, 0, 0, 655444, 0, 0, 655445, 0, 0, 655446, 0, 0, 655447, 0, 0, 655448, 0, 0, 655449, 0, 0, 655450, 0, 0, 655451, 0, 0, 655452, 0, 0, 655453, 0, 0, 655454, 0, 0, 655455, 0, 0, 655456, 0, 0, 655457, 0, 0, 655458, 0, 0, 655459, 0, 0, 655460, 0, 0, 655461, 0, 0, 655462, 0, 0, 655463, 0, 0, 655464, 0, 0, 655465, 0, 0, 655466, 0, 0, 655467, 0, 0, 655468, 0, 0, 655469, 0, 0, 655470, 0, 0, 655471, 0, 0, 655472, 0, 0, 655473, 0, 0, 655474, 0, 0, 655475, 0, 0, 655476, 0, 0, 655477, 0, 0, 655478, 0, 0, 655479, 0, 0, 655480, 0, 0, 655481, 0, 0, 655482, 0, 0, 655483, 0, 0, 655484, 0, 0, 655485, 0, 0, 655486, 0, 0, 655487, 0, 0, 655488, 0, 0, 655489, 0, 0, 655490, 0, 0, 655491, 0, 0, 655492, 0, 0, 655493, 0, 0, 655494, 0, 0, 655495, 0, 0, 655496, 0, 0, 655497, 0, 0, 655498, 0, 0, 655499, 0, 0, 655500, 0, 0, 655501, 0, 0, 655502, 0, 0, 655503, 0, 0, 655504, 0, 0, 655505, 0, 0, 655506, 0, 0, 655507, 0, 0, 655508, 0, 0, 655509, 0, 0, 720898, -1610612736, 0, 720899, -1610612736, 0, 720900, -1610612736, 0, 720901, -1610612736, 0, 720902, -1610612736, 0, 720903, -1610612736, 0, 720904, -1610612736, 0, 720905, -1610612736, 0, 720906, -1610612736, 0, 720907, -1610612736, 0, 720908, -1610612736, 0, 720909, -1610612736, 0, 720910, -1610612736, 0, 720911, -1610612736, 0, 720912, -1610612736, 0, 720913, -1610612736, 0, 720914, -1610612736, 0, 720915, -1610612736, 0, 720916, -1610612736, 0, 720917, -1610612736, 0, 720918, -1610612736, 0, 720919, -1610612736, 0, 720920, -1610612736, 0, 720921, -1610612736, 0, 720922, -1610612736, 0, 720923, -1610612736, 0, 720924, -1610612736, 0, 720925, -1610612736, 0, 720941, 0, 0, 720942, 0, 0, 720943, 0, 0, 720944, 0, 0, 720945, 0, 0, 720966, 0, 0, 720967, 0, 0, 720970, 0, 0, 720971, 0, 0, 720972, 0, 0, 720973, 0, 0, 720974, 0, 0, 720975, 0, 0, 720976, 0, 0, 720977, 0, 0, 720980, 0, 0, 720981, 0, 0, 720982, 0, 0, 720983, 0, 0, 720984, 0, 0, 720985, 0, 0, 720986, 0, 0, 720987, 0, 0, 720988, 0, 0, 720989, 0, 0, 720990, 0, 0, 720991, 0, 0, 720992, 0, 0, 720993, 0, 0, 720994, 0, 0, 720995, 0, 0, 720996, 0, 0, 720997, 0, 0, 720998, 0, 0, 720999, 0, 0, 721000, 0, 0, 721001, 0, 0, 721002, 0, 0, 721003, 0, 0, 721004, 0, 0, 721005, 0, 0, 721006, 0, 0, 721007, 0, 0, 721008, 0, 0, 721009, 0, 0, 721010, 0, 0, 721011, 0, 0, 721012, 0, 0, 721013, 0, 0, 721014, 0, 0, 721015, 0, 0, 721016, 0, 0, 721017, 0, 0, 721018, 0, 0, 721019, 0, 0, 721020, 0, 0, 721021, 0, 0, 721022, 0, 0, 721023, 0, 0, 721024, 0, 0, 721025, 0, 0, 721026, 0, 0, 721027, 0, 0, 721028, 0, 0, 721029, 0, 0, 721030, 0, 0, 721031, 0, 0, 721032, 0, 0, 721033, 0, 0, 721034, 0, 0, 721035, 0, 0, 721036, 0, 0, 721037, 0, 0, 721038, 0, 0, 721039, 0, 0, 721040, 0, 0, 721041, 0, 0, 721042, 0, 0, 721043, 0, 0, 721044, 0, 0, 721045, 0, 0, 786434, -1610612736, 0, 786435, -1610612736, 0, 786436, -1610612736, 0, 786437, -1610612736, 0, 786438, -1610612736, 0, 786439, -1610612736, 0, 786440, -1610612736, 0, 786441, -1610612736, 0, 786442, -1610612736, 0, 786443, -1610612736, 0, 786444, -1610612736, 0, 786445, -1610612736, 0, 786446, -1610612736, 0, 786447, -1610612736, 0, 786448, -1610612736, 0, 786449, -1610612736, 0, 786450, -1610612736, 0, 786451, -1610612736, 0, 786452, -1610612736, 0, 786453, -1610612736, 0, 786454, -1610612736, 0, 786455, -1610612736, 0, 786456, -1610612736, 0, 786457, -1610612736, 0, 786458, -1610612736, 0, 786459, -1610612736, 0, 786460, -1610612736, 0, 786461, -1610612736, 0, 786462, 0, 0, 786463, 0, 0, 786464, 0, 0, 786465, 0, 0, 786466, 0, 0, 786467, 0, 0, 786468, 0, 0, 786469, 0, 0, 786470, 0, 0, 786471, 0, 0, 786472, 0, 0, 786473, 0, 0, 786474, 0, 0, 786475, 0, 0, 786476, 0, 0, 786477, 0, 0, 786478, 0, 0, 786479, 0, 0, 786480, 0, 0, 786481, 0, 0, 786502, 0, 0, 786503, 0, 0, 786506, 0, 0, 786507, 0, 0, 786508, 0, 0, 786509, 0, 0, 786510, 0, 0, 786511, 0, 0, 786512, 0, 0, 786513, 0, 0, 786516, 0, 0, 786517, 0, 0, 786518, 0, 0, 786519, 0, 0, 786520, 0, 0, 786521, 0, 0, 786522, 0, 0, 786523, 0, 0, 786524, 0, 0, 786525, 0, 0, 786526, 0, 0, 786527, 0, 0, 786528, 0, 0, 786529, 0, 0, 786530, 0, 0, 786531, 0, 0, 786532, 0, 0, 786533, 0, 0, 786534, 0, 0, 786535, 0, 0, 786536, 0, 0, 786537, 0, 0, 786538, 0, 0, 786539, 0, 0, 786540, 0, 0, 786541, 0, 0, 786542, 0, 0, 786543, 0, 0, 786544, 0, 0, 786545, 0, 0, 786546, 0, 0, 786547, 0, 0, 786548, 0, 0, 786549, 0, 0, 786570, 0, 0, 786571, 0, 0, 786572, 0, 0, 786573, 0, 0, 786574, 0, 0, 786575, 0, 0, 786576, 0, 0, 786577, 0, 0, 786578, 0, 0, 786579, 0, 0, 786580, 0, 0, 786581, 0, 0, 851970, -1610612736, 0, 851971, -1610612736, 0, 851972, -1610612736, 0, 851973, -1610612736, 0, 851974, -1610612736, 0, 851975, -1610612736, 0, 851976, -1610612736, 0, 851977, -1610612736, 0, 851978, -1610612736, 0, 851979, -1610612736, 0, 851980, -1610612736, 0, 851981, -1610612736, 0, 851982, -1610612736, 0, 851983, -1610612736, 0, 851984, -1610612736, 0, 851985, -1610612736, 0, 851986, -1610612736, 0, 851987, -1610612736, 0, 851988, -1610612736, 0, 851989, -1610612736, 0, 851990, -1610612736, 0, 851991, -1610612736, 0, 851992, -1610612736, 0, 851993, -1610612736, 0, 851994, -1610612736, 0, 851995, -1610612736, 0, 851996, -1610612736, 0, 851997, -1610612736, 0, 851998, 0, 0, 851999, 0, 0, 852000, 0, 0, 852001, 0, 0, 852002, 0, 0, 852003, 0, 0, 852004, 0, 0, 852005, 0, 0, 852006, 0, 0, 852007, 0, 0, 852008, 0, 0, 852009, 0, 0, 852010, 0, 0, 852011, 0, 0, 852012, 0, 0, 852013, 0, 0, 852014, 0, 0, 852015, 0, 0, 852016, 0, 0, 852017, 0, 0, 852038, 0, 0, 852039, 0, 0, 852042, 0, 0, 852043, 0, 0, 852044, 0, 0, 852045, 0, 0, 852046, 0, 0, 852047, 0, 0, 852048, 0, 0, 852049, 0, 0, 852052, 0, 0, 852053, 0, 0, 852054, 0, 0, 852055, 0, 0, 852056, 0, 0, 852057, 0, 0, 852058, 0, 0, 852059, 0, 0, 852060, 0, 0, 852061, 0, 0, 852062, 0, 0, 852063, 0, 0, 852064, 0, 0, 852065, 0, 0, 852066, 0, 0, 852067, 0, 0, 852068, 0, 0, 852069, 0, 0, 852070, 0, 0, 852071, 0, 0, 852072, 0, 0, 852073, 0, 0, 852074, 0, 0, 852075, 0, 0, 852076, 0, 0, 852077, 0, 0, 852078, 0, 0, 852079, 0, 0, 852080, 0, 0, 852081, 0, 0, 852082, 0, 0, 852083, 0, 0, 852084, 0, 0, 852085, 0, 0, 852106, 0, 0, 852107, 0, 0, 852108, 0, 0, 852109, 0, 0, 852110, 0, 0, 852111, 0, 0, 852112, 0, 0, 852113, 0, 0, 852114, 0, 0, 852115, 0, 0, 852116, 0, 0, 852117, 0, 0, 917506, -1610612736, 0, 917507, -1610612736, 0, 917508, -1610612736, 0, 917509, -1610612736, 0, 917510, -1610612736, 0, 917511, -1610612736, 0, 917512, -1610612736, 0, 917513, -1610612736, 0, 917514, -1610612736, 0, 917515, -1610612736, 0, 917516, -1610612736, 0, 917517, -1610612736, 0, 917518, -1610612736, 0, 917519, -1610612736, 0, 917520, -1610612736, 0, 917521, -1610612736, 0, 917522, -1610612736, 0, 917523, -1610612736, 0, 917524, -1610612736, 0, 917525, -1610612736, 0, 917526, -1610612736, 0, 917527, -1610612736, 0, 917528, -1610612736, 0, 917529, -1610612736, 0, 917530, -1610612736, 0, 917531, -1610612736, 0, 917532, -1610612736, 0, 917533, -1610612736, 0, 917550, 0, 0, 917551, 0, 0, 917552, 0, 0, 917553, 0, 0, 917574, 0, 0, 917575, 0, 0, 917578, 0, 0, 917579, 0, 0, 917580, 0, 0, 917581, 0, 0, 917582, 0, 0, 917583, 0, 0, 917584, 0, 0, 917585, 0, 0, 917588, 0, 0, 917589, 0, 0, 917590, 0, 0, 917591, 0, 0, 917592, 0, 0, 917593, 0, 0, 917594, 0, 0, 917595, 0, 0, 917596, 0, 0, 917597, 0, 0, 917598, 0, 0, 917599, 0, 0, 917600, 0, 0, 917601, 0, 0, 917602, 0, 0, 917603, 0, 0, 917604, 0, 0, 917605, 0, 0, 917606, 0, 0, 917607, 0, 0, 917608, 0, 0, 917609, 0, 0, 917610, 0, 0, 917611, 0, 0, 917612, 0, 0, 917613, 0, 0, 917614, 0, 0, 917615, 0, 0, 917616, 0, 0, 917617, 0, 0, 917618, 0, 0, 917619, 0, 0, 917620, 0, 0, 917621, 0, 0, 917642, 0, 0, 917643, 0, 0, 917644, 0, 0, 917645, 0, 0, 917646, 0, 0, 917647, 0, 0, 917648, 0, 0, 917649, 0, 0, 917650, 0, 0, 917651, 0, 0, 917652, 0, 0, 917653, 0, 0, 983042, -1610612736, 0, 983043, -1610612736, 0, 983044, -1610612736, 0, 983045, -1610612736, 0, 983046, -1610612736, 0, 983047, -1610612736, 0, 983048, -1610612736, 0, 983049, -1610612736, 0, 983050, -1610612736, 0, 983051, -1610612736, 0, 983052, -1610612736, 0, 983053, -1610612736, 0, 983054, -1610612736, 0, 983055, -1610612736, 0, 983056, -1610612736, 0, 983057, -1610612736, 0, 983058, -1610612736, 0, 983059, -1610612736, 0, 983060, -1610612736, 0, 983061, -1610612736, 0, 983062, -1610612736, 0, 983063, -1610612736, 0, 983064, -1610612736, 0, 983065, -1610612736, 0, 983066, -1610612736, 0, 983067, -1610612736, 0, 983068, -1610612736, 0, 983069, -1610612736, 0, 983086, 0, 0, 983087, 0, 0, 983088, 0, 0, 983089, 0, 0, 983110, 0, 0, 983111, 0, 0, 983114, 0, 0, 983115, 0, 0, 983116, 0, 0, 983117, 0, 0, 983118, 0, 0, 983119, 0, 0, 983120, 0, 0, 983121, 0, 0, 983124, 0, 0, 983125, 0, 0, 983126, 0, 0, 983127, 0, 0, 983128, 0, 0, 983129, 0, 0, 983130, 0, 0, 983131, 0, 0, 983132, 0, 0, 983133, 0, 0, 983134, 0, 0, 983135, 0, 0, 983136, 0, 0, 983137, 0, 0, 983138, 0, 0, 983139, 0, 0, 983140, 0, 0, 983141, 0, 0, 983142, 0, 0, 983143, 0, 0, 983144, 0, 0, 983145, 0, 0, 983146, 0, 0, 983147, 0, 0, 983148, 0, 0, 983149, 0, 0, 983150, 0, 0, 983151, 0, 0, 983152, 0, 0, 983153, 0, 0, 983154, 0, 0, 983155, 0, 0, 983156, 0, 0, 983157, 0, 0, 983178, 0, 0, 983179, 0, 0, 983180, 0, 0, 983181, 0, 0, 983182, 0, 0, 983183, 0, 0, 983184, 0, 0, 983185, 0, 0, 983186, 0, 0, 983187, 0, 0, 983188, 0, 0, 983189, 0, 0, 1048578, -1610612736, 0, 1048579, -1610612736, 0, 1048580, -1610612736, 0, 1048581, -1610612736, 0, 1048582, -1610612736, 0, 1048583, -1610612736, 0, 1048584, -1610612736, 0, 1048585, -1610612736, 0, 1048586, -1610612736, 0, 1048587, -1610612736, 0, 1048588, -1610612736, 0, 1048589, -1610612736, 0, 1048590, -1610612736, 0, 1048591, -1610612736, 0, 1048592, -1610612736, 0, 1048593, -1610612736, 0, 1048594, -1610612736, 0, 1048595, -1610612736, 0, 1048596, -1610612736, 0, 1048597, -1610612736, 0, 1048598, -1610612736, 0, 1048599, -1610612736, 0, 1048600, -1610612736, 0, 1048601, -1610612736, 0, 1048602, -1610612736, 0, 1048603, -1610612736, 0, 1048604, -1610612736, 0, 1048605, -1610612736, 0, 1048622, 0, 0, 1048623, 0, 0, 1048624, 0, 0, 1048625, 0, 0, 1048626, 0, 0, 1048627, 0, 0, 1048628, 0, 0, 1048629, 0, 0, 1048630, 0, 0, 1048631, 0, 0, 1048646, 0, 0, 1048647, 0, 0, 1048660, 0, 0, 1048661, 0, 0, 1048662, 0, 0, 1048663, 0, 0, 1048664, 0, 0, 1048665, 0, 0, 1048666, 0, 0, 1048667, 0, 0, 1048668, 0, 0, 1048669, 0, 0, 1048670, 0, 0, 1048671, 0, 0, 1048672, 0, 0, 1048673, 0, 0, 1048674, 0, 0, 1048675, 0, 0, 1048676, 0, 0, 1048677, 0, 0, 1048678, 0, 0, 1048679, 0, 0, 1048680, 0, 0, 1048681, 0, 0, 1048682, 0, 0, 1048683, 0, 0, 1048684, 0, 0, 1048685, 0, 0, 1048686, 0, 0, 1048687, 0, 0, 1048688, 0, 0, 1048689, 0, 0, 1048690, 0, 0, 1048691, 0, 0, 1048692, 0, 0, 1048693, 0, 0, 1048714, 0, 0, 1048715, 0, 0, 1048716, 0, 0, 1048717, 0, 0, 1048718, 0, 0, 1048719, 0, 0, 1048720, 0, 0, 1048721, 0, 0, 1048722, 0, 0, 1048723, 0, 0, 1048724, 0, 0, 1048725, 0, 0, 1114114, -1610612736, 0, 1114115, -1610612736, 0, 1114116, -1610612736, 0, 1114117, -1610612736, 0, 1114118, -1610612736, 0, 1114119, -1610612736, 0, 1114120, -1610612736, 0, 1114121, -1610612736, 0, 1114122, -1610612736, 0, 1114123, -1610612736, 0, 1114124, -1610612736, 0, 1114125, -1610612736, 0, 1114126, -1610612736, 0, 1114127, -1610612736, 0, 1114128, -1610612736, 0, 1114129, -1610612736, 0, 1114130, -1610612736, 0, 1114131, -1610612736, 0, 1114132, -1610612736, 0, 1114133, -1610612736, 0, 1114134, -1610612736, 0, 1114135, -1610612736, 0, 1114136, -1610612736, 0, 1114137, -1610612736, 0, 1114138, -1610612736, 0, 1114139, -1610612736, 0, 1114140, -1610612736, 0, 1114141, -1610612736, 0, 1114158, 0, 0, 1114159, 0, 0, 1114160, 0, 0, 1114161, 0, 0, 1114162, 0, 0, 1114163, 0, 0, 1114164, 0, 0, 1114165, 0, 0, 1114166, 0, 0, 1114167, 0, 0, 1114182, 0, 0, 1114183, 0, 0, 1114196, 0, 0, 1114197, 0, 0, 1114198, 0, 0, 1114199, 0, 0, 1114200, 0, 0, 1114201, 0, 0, 1114202, 0, 0, 1114203, 0, 0, 1114204, 0, 0, 1114205, 0, 0, 1114206, 0, 0, 1114207, 0, 0, 1114208, 0, 0, 1114209, 0, 0, 1114210, 0, 0, 1114211, 0, 0, 1114212, 0, 0, 1114213, 0, 0, 1114214, 0, 0, 1114215, 0, 0, 1114216, 0, 0, 1114217, 0, 0, 1114218, 0, 0, 1114219, 0, 0, 1114220, 0, 0, 1114221, 0, 0, 1114222, 0, 0, 1114223, 0, 0, 1114224, 0, 0, 1114225, 0, 0, 1114226, 0, 0, 1114227, 0, 0, 1114228, 0, 0, 1114229, 0, 0, 1114250, 0, 0, 1114251, 0, 0, 1114252, 0, 0, 1114253, 0, 0, 1114254, 0, 0, 1114255, 0, 0, 1114256, 0, 0, 1114257, 0, 0, 1114258, 0, 0, 1114259, 0, 0, 1114260, 0, 0, 1114261, 0, 0, 1179694, 0, 0, 1179695, 0, 0, 1179696, 0, 0, 1179697, 0, 0, 1179698, 0, 0, 1179699, 0, 0, 1179700, 0, 0, 1179701, 0, 0, 1179702, 0, 0, 1179703, 0, 0, 1179704, 0, 0, 1179705, 0, 0, 1179706, 0, 0, 1179707, 0, 0, 1179708, 0, 0, 1179709, 0, 0, 1179710, 0, 0, 1179711, 0, 0, 1179712, 0, 0, 1179713, 0, 0, 1179714, 0, 0, 1179715, 0, 0, 1179716, 0, 0, 1179717, 0, 0, 1179718, 0, 0, 1179719, 0, 0, 1179720, 0, 0, 1179721, 0, 0, 1179722, 0, 0, 1179723, 0, 0, 1179724, 0, 0, 1179725, 0, 0, 1179726, 0, 0, 1179727, 0, 0, 1179728, 0, 0, 1179729, 0, 0, 1179730, 0, 0, 1179731, 0, 0, 1179732, 0, 0, 1179733, 0, 0, 1179734, 0, 0, 1179735, 0, 0, 1179736, 0, 0, 1179737, 0, 0, 1179738, 0, 0, 1179739, 0, 0, 1179740, 0, 0, 1179741, 0, 0, 1179742, 0, 0, 1179743, 0, 0, 1179744, 0, 0, 1179745, 0, 0, 1179746, 0, 0, 1179747, 0, 0, 1179748, 0, 0, 1179749, 0, 0, 1179750, 0, 0, 1179751, 0, 0, 1179752, 0, 0, 1179753, 0, 0, 1179754, 0, 0, 1179755, 0, 0, 1179756, 0, 0, 1179757, 0, 0, 1179758, 0, 0, 1179759, 0, 0, 1179760, 0, 0, 1179761, 0, 0, 1179762, 0, 0, 1179763, 0, 0, 1179764, 0, 0, 1179765, 0, 0, 1179786, 0, 0, 1179787, 0, 0, 1179788, 0, 0, 1179789, 0, 0, 1179790, 0, 0, 1179791, 0, 0, 1179792, 0, 0, 1179793, 0, 0, 1179794, 0, 0, 1179795, 0, 0, 1179796, 0, 0, 1179797, 0, 0, 1245230, 0, 0, 1245231, 0, 0, 1245232, 0, 0, 1245233, 0, 0, 1245234, 0, 0, 1245235, 0, 0, 1245236, 0, 0, 1245237, 0, 0, 1245238, 0, 0, 1245239, 0, 0, 1245240, 0, 0, 1245241, 0, 0, 1245242, 0, 0, 1245243, 0, 0, 1245244, 0, 0, 1245245, 0, 0, 1245246, 0, 0, 1245247, 0, 0, 1245248, 0, 0, 1245249, 0, 0, 1245250, 0, 0, 1245251, 0, 0, 1245252, 0, 0, 1245253, 0, 0, 1245254, 0, 0, 1245255, 0, 0, 1245256, 0, 0, 1245257, 0, 0, 1245258, 0, 0, 1245259, 0, 0, 1245260, 0, 0, 1245261, 0, 0, 1245262, 0, 0, 1245263, 0, 0, 1245264, 0, 0, 1245265, 0, 0, 1245266, 0, 0, 1245267, 0, 0, 1245268, 0, 0, 1245269, 0, 0, 1245270, 0, 0, 1245271, 0, 0, 1245272, 0, 0, 1245273, 0, 0, 1245274, 0, 0, 1245275, 0, 0, 1245276, 0, 0, 1245277, 0, 0, 1245278, 0, 0, 1245279, 0, 0, 1245280, 0, 0, 1245281, 0, 0, 1245282, 0, 0, 1245283, 0, 0, 1245284, 0, 0, 1245285, 0, 0, 1245286, 0, 0, 1245287, 0, 0, 1245288, 0, 0, 1245289, 0, 0, 1245290, 0, 0, 1245291, 0, 0, 1245292, 0, 0, 1245293, 0, 0, 1245294, 0, 0, 1245295, 0, 0, 1245296, 0, 0, 1245297, 0, 0, 1245298, 0, 0, 1245299, 0, 0, 1245300, 0, 0, 1245301, 0, 0, 1245322, 0, 0, 1245323, 0, 0, 1245324, 0, 0, 1245325, 0, 0, 1245326, 0, 0, 1245327, 0, 0, 1245328, 0, 0, 1245329, 0, 0, 1245330, 0, 0, 1245331, 0, 0, 1245332, 0, 0, 1245333, 0, 0, 1310766, 0, 0, 1310767, 0, 0, 1310768, 0, 0, 1310769, 0, 0, 1310770, 0, 0, 1310771, 0, 0, 1310772, 0, 0, 1310773, 0, 0, 1310774, 0, 0, 1310775, 0, 0, 1310804, 0, 0, 1310805, 0, 0, 1310806, 0, 0, 1310807, 0, 0, 1310808, 0, 0, 1310809, 0, 0, 1310810, 0, 0, 1310811, 0, 0, 1310812, 0, 0, 1310813, 0, 0, 1310814, 0, 0, 1310815, 0, 0, 1310816, 0, 0, 1310817, 0, 0, 1310818, 0, 0, 1310819, 0, 0, 1310820, 0, 0, 1310821, 0, 0, 1310822, 0, 0, 1310823, 0, 0, 1310824, 0, 0, 1310825, 0, 0, 1310826, 0, 0, 1310827, 0, 0, 1310828, 0, 0, 1310829, 0, 0, 1310830, 0, 0, 1310831, 0, 0, 1310832, 0, 0, 1310833, 0, 0, 1310834, 0, 0, 1310835, 0, 0, 1310836, 0, 0, 1310837, 0, 0, 1310858, 0, 0, 1310859, 0, 0, 1310860, 0, 0, 1310861, 0, 0, 1310862, 0, 0, 1310863, 0, 0, 1310864, 0, 0, 1310865, 0, 0, 1310866, 0, 0, 1310867, 0, 0, 1310868, 0, 0, 1310869, 0, 0, 1376302, 0, 0, 1376303, 0, 0, 1376304, 0, 0, 1376305, 0, 0, 1376306, 0, 0, 1376307, 0, 0, 1376308, 0, 0, 1376309, 0, 0, 1376310, 0, 0, 1376311, 0, 0, 1376340, 0, 0, 1376341, 0, 0, 1376342, 0, 0, 1376343, 0, 0, 1376344, 0, 0, 1376345, 0, 0, 1376346, 0, 0, 1376347, 0, 0, 1376348, 0, 0, 1376349, 0, 0, 1376350, 0, 0, 1376351, 0, 0, 1376352, 0, 0, 1376353, 0, 0, 1376354, 0, 0, 1376355, 0, 0, 1376356, 0, 0, 1376357, 0, 0, 1376358, 0, 0, 1376359, 0, 0, 1376360, 0, 0, 1376361, 0, 0, 1376362, 0, 0, 1376363, 0, 0, 1376364, 0, 0, 1376365, 0, 0, 1376366, 0, 0, 1376367, 0, 0, 1376368, 0, 0, 1376369, 0, 0, 1376370, 0, 0, 1376371, 0, 0, 1376372, 0, 0, 1376373, 0, 0, 1376394, 0, 0, 1376395, 0, 0, 1376396, 0, 0, 1376397, 0, 0, 1376398, 0, 0, 1376399, 0, 0, 1376400, 0, 0, 1376401, 0, 0, 1376402, 0, 0, 1376403, 0, 0, 1376404, 0, 0, 1376405, 0, 0, 1441876, 0, 0, 1441877, 0, 0, 1441878, 0, 0, 1441879, 0, 0, 1441880, 0, 0, 1441881, 0, 0, 1441882, 0, 0, 1441883, 0, 0, 1441884, 0, 0, 1441885, 0, 0, 1441886, 0, 0, 1441887, 0, 0, 1441888, 0, 0, 1441889, 0, 0, 1441890, 0, 0, 1441891, 0, 0, 1441892, 0, 0, 1441893, 0, 0, 1441894, 0, 0, 1441895, 0, 0, 1441896, 0, 0, 1441897, 0, 0, 1441898, 0, 0, 1441899, 0, 0, 1441900, 0, 0, 1441901, 0, 0, 1441902, 0, 0, 1441903, 0, 0, 1441904, 0, 0, 1441905, 0, 0, 1441906, 0, 0, 1441907, 0, 0, 1441908, 0, 0, 1441909, 0, 0, 1441930, 0, 0, 1441931, 0, 0, 1441932, 0, 0, 1441933, 0, 0, 1441934, 0, 0, 1441935, 0, 0, 1441936, 0, 0, 1441937, 0, 0, 1441938, 0, 0, 1441939, 0, 0, 1441940, 0, 0, 1441941, 0, 0, 1507412, 0, 0, 1507413, 0, 0, 1507414, 0, 0, 1507415, 0, 0, 1507416, 0, 0, 1507417, 0, 0, 1507418, 0, 0, 1507419, 0, 0, 1507420, 0, 0, 1507421, 0, 0, 1507422, 0, 0, 1507423, 0, 0, 1507424, 0, 0, 1507425, 0, 0, 1507426, 0, 0, 1507427, 0, 0, 1507428, 0, 0, 1507429, 0, 0, 1507430, 0, 0, 1507431, 0, 0, 1507432, 0, 0, 1507433, 0, 0, 1507434, 0, 0, 1507435, 0, 0, 1507436, 0, 0, 1507437, 0, 0, 1507438, 0, 0, 1507439, 0, 0, 1507440, 0, 0, 1507441, 0, 0, 1507442, 0, 0, 1507443, 0, 0, 1507444, 0, 0, 1507445, 0, 0, 1507466, 0, 0, 1507467, 0, 0, 1507468, 0, 0, 1507469, 0, 0, 1507470, 0, 0, 1507471, 0, 0, 1507472, 0, 0, 1507473, 0, 0, 1507474, 0, 0, 1507475, 0, 0, 1507476, 0, 0, 1507477, 0, 0, 1572948, 0, 0, 1572949, 0, 0, 1572950, 0, 0, 1572951, 0, 0, 1572952, 0, 0, 1572953, 0, 0, 1572954, 0, 0, 1572955, 0, 0, 1572956, 0, 0, 1572957, 0, 0, 1572958, 0, 0, 1572959, 0, 0, 1572960, 0, 0, 1572961, 0, 0, 1572962, 0, 0, 1572963, 0, 0, 1572964, 0, 0, 1572965, 0, 0, 1572966, 0, 0, 1572967, 0, 0, 1572968, 0, 0, 1572969, 0, 0, 1572970, 0, 0, 1572971, 0, 0, 1572972, 0, 0, 1572973, 0, 0, 1572974, 0, 0, 1572975, 0, 0, 1572976, 0, 0, 1572977, 0, 0, 1572978, 0, 0, 1572979, 0, 0, 1572980, 0, 0, 1572981, 0, 0, 1573008, 0, 0, 1573009, 0, 0, 1638484, 0, 0, 1638485, 0, 0, 1638486, 0, 0, 1638487, 0, 0, 1638488, 0, 0, 1638489, 0, 0, 1638490, 0, 0, 1638491, 0, 0, 1638492, 0, 0, 1638493, 0, 0, 1638494, 0, 0, 1638495, 0, 0, 1638496, 0, 0, 1638497, 0, 0, 1638498, 0, 0, 1638499, 0, 0, 1638500, 0, 0, 1638501, 0, 0, 1638502, 0, 0, 1638503, 0, 0, 1638504, 0, 0, 1638505, 0, 0, 1638506, 0, 0, 1638507, 0, 0, 1638508, 0, 0, 1638509, 0, 0, 1638510, 0, 0, 1638511, 0, 0, 1638512, 0, 0, 1638513, 0, 0, 1638514, 0, 0, 1638515, 0, 0, 1638516, 0, 0, 1638517, 0, 0, 1638544, 0, 0, 1638545, 0, 0, 1704020, 0, 0, 1704021, 0, 0, 1704022, 0, 0, 1704023, 0, 0, 1704024, 0, 0, 1704025, 0, 0, 1704026, 0, 0, 1704027, 0, 0, 1704028, 0, 0, 1704029, 0, 0, 1704030, 0, 0, 1704031, 0, 0, 1704032, 0, 0, 1704033, 0, 0, 1704034, 0, 0, 1704035, 0, 0, 1704036, 0, 0, 1704037, 0, 0, 1704038, 0, 0, 1704039, 0, 0, 1704040, 0, 0, 1704041, 0, 0, 1704042, 0, 0, 1704043, 0, 0, 1704044, 0, 0, 1704045, 0, 0, 1704046, 0, 0, 1704047, 0, 0, 1704048, 0, 0, 1704049, 0, 0, 1704050, 0, 0, 1704051, 0, 0, 1704052, 0, 0, 1704053, 0, 0, 1704080, 0, 0, 1704081, 0, 0, 1704084, 0, 0, 1704085, 0, 0, 1704086, 0, 0, 1704087, 0, 0, 1704088, 0, 0, 1704089, 0, 0, 1704090, 0, 0, 1704091, 0, 0, 1704092, 0, 0, 1704093, 0, 0, 1704094, 0, 0, 1704095, 0, 0, 1769556, 0, 0, 1769557, 0, 0, 1769558, 0, 0, 1769559, 0, 0, 1769560, 0, 0, 1769561, 0, 0, 1769562, 0, 0, 1769563, 0, 0, 1769564, 0, 0, 1769565, 0, 0, 1769566, 0, 0, 1769567, 0, 0, 1769568, 0, 0, 1769569, 0, 0, 1769570, 0, 0, 1769571, 0, 0, 1769572, 0, 0, 1769573, 0, 0, 1769574, 0, 0, 1769575, 0, 0, 1769576, 0, 0, 1769577, 0, 0, 1769578, 0, 0, 1769579, 0, 0, 1769580, 0, 0, 1769581, 0, 0, 1769582, 0, 0, 1769583, 0, 0, 1769584, 0, 0, 1769585, 0, 0, 1769586, 0, 0, 1769587, 0, 0, 1769588, 0, 0, 1769589, 0, 0, 1769616, 0, 0, 1769617, 0, 0, 1769620, 0, 0, 1769621, 0, 0, 1769622, 0, 0, 1769623, 0, 0, 1769624, 0, 0, 1769625, 0, 0, 1769626, 0, 0, 1769627, 0, 0, 1769628, 0, 0, 1769629, 0, 0, 1769630, 0, 0, 1769631, 0, 0, 1835092, 0, 0, 1835093, 0, 0, 1835094, 0, 0, 1835095, 0, 0, 1835096, 0, 0, 1835097, 0, 0, 1835098, 0, 0, 1835099, 0, 0, 1835100, 0, 0, 1835101, 0, 0, 1835102, 0, 0, 1835103, 0, 0, 1835104, 0, 0, 1835105, 0, 0, 1835106, 0, 0, 1835107, 0, 0, 1835108, 0, 0, 1835109, 0, 0, 1835110, 0, 0, 1835111, 0, 0, 1835112, 0, 0, 1835113, 0, 0, 1835114, 0, 0, 1835115, 0, 0, 1835116, 0, 0, 1835117, 0, 0, 1835118, 0, 0, 1835119, 0, 0, 1835120, 0, 0, 1835121, 0, 0, 1835122, 0, 0, 1835123, 0, 0, 1835124, 0, 0, 1835125, 0, 0, 1835152, 0, 0, 1835153, 0, 0, 1835156, 0, 0, 1835157, 0, 0, 1835158, 0, 0, 1835159, 0, 0, 1835160, 0, 0, 1835161, 0, 0, 1835162, 0, 0, 1835163, 0, 0, 1835164, 0, 0, 1835165, 0, 0, 1835166, 0, 0, 1835167, 0, 0, 1900628, 0, 0, 1900629, 0, 0, 1900630, 0, 0, 1900631, 0, 0, 1900632, 0, 0, 1900633, 0, 0, 1900634, 0, 0, 1900635, 0, 0, 1900636, 0, 0, 1900637, 0, 0, 1900638, 0, 0, 1900639, 0, 0, 1900640, 0, 0, 1900641, 0, 0, 1900642, 0, 0, 1900643, 0, 0, 1900644, 0, 0, 1900645, 0, 0, 1900646, 0, 0, 1900647, 0, 0, 1900648, 0, 0, 1900649, 0, 0, 1900650, 0, 0, 1900651, 0, 0, 1900652, 0, 0, 1900653, 0, 0, 1900654, 0, 0, 1900655, 0, 0, 1900656, 0, 0, 1900657, 0, 0, 1900658, 0, 0, 1900659, 0, 0, 1900660, 0, 0, 1900661, 0, 0, 1900688, 0, 0, 1900689, 0, 0, 1900692, 0, 0, 1900693, 0, 0, 1900694, 0, 0, 1900695, 0, 0, 1900696, 0, 0, 1900697, 0, 0, 1900698, 0, 0, 1900699, 0, 0, 1900700, 0, 0, 1900701, 0, 0, 1900702, 0, 0, 1900703, 0, 0, 1966164, 0, 0, 1966165, 0, 0, 1966166, 0, 0, 1966167, 0, 0, 1966168, 0, 0, 1966169, 0, 0, 1966170, 0, 0, 1966171, 0, 0, 1966172, 0, 0, 1966173, 0, 0, 1966174, 0, 0, 1966175, 0, 0, 1966176, 0, 0, 1966177, 0, 0, 1966178, 0, 0, 1966179, 0, 0, 1966180, 0, 0, 1966181, 0, 0, 1966182, 0, 0, 1966183, 0, 0, 1966184, 0, 0, 1966185, 0, 0, 1966186, 0, 0, 1966187, 0, 0, 1966188, 0, 0, 1966189, 0, 0, 1966190, 0, 0, 1966191, 0, 0, 1966192, 0, 0, 1966193, 0, 0, 1966194, 0, 0, 1966195, 0, 0, 1966196, 0, 0, 1966197, 0, 0, 1966224, 0, 0, 1966225, 0, 0, 1966228, 0, 0, 1966229, 0, 0, 1966230, 0, 0, 1966231, 0, 0, 1966232, 0, 0, 1966233, 0, 0, 1966234, 0, 0, 1966235, 0, 0, 1966236, 0, 0, 1966237, 0, 0, 1966238, 0, 0, 1966239, 0, 0, 2031700, 0, 0, 2031701, 0, 0, 2031702, 0, 0, 2031703, 0, 0, 2031704, 0, 0, 2031705, 0, 0, 2031706, 0, 0, 2031707, 0, 0, 2031708, 0, 0, 2031709, 0, 0, 2031710, 0, 0, 2031711, 0, 0, 2031712, 0, 0, 2031713, 0, 0, 2031714, 0, 0, 2031715, 0, 0, 2031716, 0, 0, 2031717, 0, 0, 2031718, 0, 0, 2031719, 0, 0, 2031720, 0, 0, 2031721, 0, 0, 2031722, 0, 0, 2031723, 0, 0, 2031724, 0, 0, 2031725, 0, 0, 2031726, 0, 0, 2031727, 0, 0, 2031728, 0, 0, 2031729, 0, 0, 2031730, 0, 0, 2031731, 0, 0, 2031732, 0, 0, 2031733, 0, 0, 2031760, 0, 0, 2031761, 0, 0, 2031764, 0, 0, 2031765, 0, 0, 2031766, 0, 0, 2031767, 0, 0, 2031768, 0, 0, 2031769, 0, 0, 2031770, 0, 0, 2031771, 0, 0, 2031772, 0, 0, 2031773, 0, 0, 2031774, 0, 0, 2031775, 0, 0, 2097236, 0, 0, 2097237, 0, 0, 2097238, 0, 0, 2097239, 0, 0, 2097240, 0, 0, 2097241, 0, 0, 2097242, 0, 0, 2097243, 0, 0, 2097244, 0, 0, 2097245, 0, 0, 2097246, 0, 0, 2097247, 0, 0, 2097248, 0, 0, 2097249, 0, 0, 2097250, 0, 0, 2097251, 0, 0, 2097252, 0, 0, 2097253, 0, 0, 2097254, 0, 0, 2097255, 0, 0, 2097256, 0, 0, 2097257, 0, 0, 2097258, 0, 0, 2097259, 0, 0, 2097260, 0, 0, 2097261, 0, 0, 2097262, 0, 0, 2097263, 0, 0, 2097264, 0, 0, 2097265, 0, 0, 2097266, 0, 0, 2097267, 0, 0, 2097268, 0, 0, 2097269, 0, 0, 2097296, 0, 0, 2097297, 0, 0, 2097298, 0, 0, 2097299, 0, 0, 2097300, 0, 0, 2097301, 0, 0, 2097302, 0, 0, 2097303, 0, 0, 2097304, 0, 0, 2097305, 0, 0, 2097306, 0, 0, 2097307, 0, 0, 2097308, 0, 0, 2097309, 0, 0, 2097310, 0, 0, 2097311, 0, 0, 2162772, 0, 0, 2162773, 0, 0, 2162774, 0, 0, 2162775, 0, 0, 2162776, 0, 0, 2162777, 0, 0, 2162778, 0, 0, 2162779, 0, 0, 2162780, 0, 0, 2162781, 0, 0, 2162782, 0, 0, 2162783, 0, 0, 2162784, 0, 0, 2162785, 0, 0, 2162786, 0, 0, 2162787, 0, 0, 2162788, 0, 0, 2162789, 0, 0, 2162790, 0, 0, 2162791, 0, 0, 2162792, 0, 0, 2162793, 0, 0, 2162794, 0, 0, 2162795, 0, 0, 2162796, 0, 0, 2162797, 0, 0, 2162798, 0, 0, 2162799, 0, 0, 2162800, 0, 0, 2162801, 0, 0, 2162802, 0, 0, 2162803, 0, 0, 2162804, 0, 0, 2162805, 0, 0, 2162832, 0, 0, 2162833, 0, 0, 2162834, 0, 0, 2162835, 0, 0, 2162836, 0, 0, 2162837, 0, 0, 2162838, 0, 0, 2162839, 0, 0, 2162840, 0, 0, 2162841, 0, 0, 2162842, 0, 0, 2162843, 0, 0, 2162844, 0, 0, 2162845, 0, 0, 2162846, 0, 0, 2162847, 0, 0, 2228308, 0, 0, 2228309, 0, 0, 2228310, 0, 0, 2228311, 0, 0, 2228312, 0, 0, 2228313, 0, 0, 2228314, 0, 0, 2228315, 0, 0, 2228316, 0, 0, 2228317, 0, 0, 2228318, 0, 0, 2228319, 0, 0, 2228320, 0, 0, 2228321, 0, 0, 2228322, 0, 0, 2228323, 0, 0, 2228324, 0, 0, 2228325, 0, 0, 2228326, 0, 0, 2228327, 0, 0, 2228328, 0, 0, 2228329, 0, 0, 2228330, 0, 0, 2228331, 0, 0, 2228332, 0, 0, 2228333, 0, 0, 2228334, 0, 0, 2228335, 0, 0, 2228336, 0, 0, 2228337, 0, 0, 2228338, 0, 0, 2228339, 0, 0, 2228340, 0, 0, 2228341, 0, 0, 2228368, 0, 0, 2228369, 0, 0, 2228372, 0, 0, 2228373, 0, 0, 2228374, 0, 0, 2228375, 0, 0, 2228376, 0, 0, 2228377, 0, 0, 2228378, 0, 0, 2228379, 0, 0, 2228380, 0, 0, 2228381, 0, 0, 2228382, 0, 0, 2228383, 0, 0, 2293844, 0, 0, 2293845, 0, 0, 2293846, 0, 0, 2293847, 0, 0, 2293848, 0, 0, 2293849, 0, 0, 2293850, 0, 0, 2293851, 0, 0, 2293852, 0, 0, 2293853, 0, 0, 2293854, 0, 0, 2293855, 0, 0, 2293856, 0, 0, 2293857, 0, 0, 2293858, 0, 0, 2293859, 0, 0, 2293860, 0, 0, 2293861, 0, 0, 2293862, 0, 0, 2293863, 0, 0, 2293864, 0, 0, 2293865, 0, 0, 2293866, 0, 0, 2293867, 0, 0, 2293868, 0, 0, 2293869, 0, 0, 2293870, 0, 0, 2293871, 0, 0, 2293872, 0, 0, 2293873, 0, 0, 2293874, 0, 0, 2293875, 0, 0, 2293876, 0, 0, 2293877, 0, 0, 2293904, 0, 0, 2293905, 0, 0, 2293908, 0, 0, 2293909, 0, 0, 2293910, 0, 0, 2293911, 0, 0, 2293912, 0, 0, 2293913, 0, 0, 2293914, 0, 0, 2293915, 0, 0, 2293916, 0, 0, 2293917, 0, 0, 2293918, 0, 0, 2293919, 0, 0, 2359380, 0, 0, 2359381, 0, 0, 2359382, 0, 0, 2359383, 0, 0, 2359384, 0, 0, 2359385, 0, 0, 2359386, 0, 0, 2359387, 0, 0, 2359388, 0, 0, 2359389, 0, 0, 2359390, 0, 0, 2359391, 0, 0, 2359392, 0, 0, 2359393, 0, 0, 2359394, 0, 0, 2359395, 0, 0, 2359396, 0, 0, 2359397, 0, 0, 2359398, 0, 0, 2359399, 0, 0, 2359400, 0, 0, 2359401, 0, 0, 2359402, 0, 0, 2359403, 0, 0, 2359404, 0, 0, 2359405, 0, 0, 2359406, 0, 0, 2359407, 0, 0, 2359408, 0, 0, 2359409, 0, 0, 2359410, 0, 0, 2359411, 0, 0, 2359412, 0, 0, 2359413, 0, 0, 2359414, 0, 0, 2359415, 0, 0, 2359416, 0, 0, 2359417, 0, 0, 2359418, 0, 0, 2359419, 0, 0, 2359420, 0, 0, 2359421, 0, 0, 2359422, 0, 0, 2359423, 0, 0, 2359424, 0, 0, 2359425, 0, 0, 2359426, 0, 0, 2359427, 0, 0, 2359428, 0, 0, 2359429, 0, 0, 2359430, 0, 0, 2359431, 0, 0, 2359432, 0, 0, 2359433, 0, 0, 2359434, 0, 0, 2359435, 0, 0, 2359436, 0, 0, 2359437, 0, 0, 2359438, 0, 0, 2359439, 0, 0, 2359440, 0, 0, 2359441, 0, 0, 2359444, 0, 0, 2359445, 0, 0, 2359446, 0, 0, 2359447, 0, 0, 2359448, 0, 0, 2359449, 0, 0, 2359450, 0, 0, 2359451, 0, 0, 2359452, 0, 0, 2359453, 0, 0, 2359454, 0, 0, 2359455, 0, 0, 2424916, 0, 0, 2424917, 0, 0, 2424918, 0, 0, 2424919, 0, 0, 2424920, 0, 0, 2424921, 0, 0, 2424922, 0, 0, 2424923, 0, 0, 2424924, 0, 0, 2424925, 0, 0, 2424926, 0, 0, 2424927, 0, 0, 2424928, 0, 0, 2424929, 0, 0, 2424930, 0, 0, 2424931, 0, 0, 2424932, 0, 0, 2424933, 0, 0, 2424934, 0, 0, 2424935, 0, 0, 2424936, 0, 0, 2424937, 0, 0, 2424938, 0, 0, 2424939, 0, 0, 2424940, 0, 0, 2424941, 0, 0, 2424942, 0, 0, 2424943, 0, 0, 2424944, 0, 0, 2424945, 0, 0, 2424946, 0, 0, 2424947, 0, 0, 2424948, 0, 0, 2424949, 0, 0, 2424950, 0, 0, 2424951, 0, 0, 2424952, 0, 0, 2424953, 0, 0, 2424954, 0, 0, 2424955, 0, 0, 2424956, 0, 0, 2424957, 0, 0, 2424958, 0, 0, 2424959, 0, 0, 2424960, 0, 0, 2424961, 0, 0, 2424962, 0, 0, 2424963, 0, 0, 2424964, 0, 0, 2424965, 0, 0, 2424966, 0, 0, 2424967, 0, 0, 2424968, 0, 0, 2424969, 0, 0, 2424970, 0, 0, 2424971, 0, 0, 2424972, 0, 0, 2424973, 0, 0, 2424974, 0, 0, 2424975, 0, 0, 2424976, 0, 0, 2424977, 0, 0, 2424980, 0, 0, 2424981, 0, 0, 2424982, 0, 0, 2424983, 0, 0, 2424984, 0, 0, 2424985, 0, 0, 2424986, 0, 0, 2424987, 0, 0, 2424988, 0, 0, 2424989, 0, 0, 2424990, 0, 0, 2424991, 0, 0, 2490452, 0, 0, 2490453, 0, 0, 2490454, 0, 0, 2490455, 0, 0, 2490456, 0, 0, 2490457, 0, 0, 2490458, 0, 0, 2490459, 0, 0, 2490460, 0, 0, 2490461, 0, 0, 2490462, 0, 0, 2490463, 0, 0, 2490464, 0, 0, 2490465, 0, 0, 2490466, 0, 0, 2490467, 0, 0, 2490468, 0, 0, 2490469, 0, 0, 2490470, 0, 0, 2490471, 0, 0, 2490472, 0, 0, 2490473, 0, 0, 2490474, 0, 0, 2490475, 0, 0, 2490476, 0, 0, 2490477, 0, 0, 2490478, 0, 0, 2490479, 0, 0, 2490480, 0, 0, 2490481, 0, 0, 2490482, 0, 0, 2490483, 0, 0, 2490484, 0, 0, 2490485, 0, 0, 2555988, 0, 0, 2555989, 0, 0, 2555990, 0, 0, 2555991, 0, 0, 2555992, 0, 0, 2555993, 0, 0, 2555994, 0, 0, 2555995, 0, 0, 2555996, 0, 0, 2555997, 0, 0, 2555998, 0, 0, 2555999, 0, 0, 2556000, 0, 0, 2556001, 0, 0, 2556002, 0, 0, 2556003, 0, 0, 2556004, 0, 0, 2556005, 0, 0, 2556006, 0, 0, 2556007, 0, 0, 2556008, 0, 0, 2556009, 0, 0, 2556010, 0, 0, 2556011, 0, 0, 2556012, 0, 0, 2556013, 0, 0, 2556014, 0, 0, 2556015, 0, 0, 2556016, 0, 0, 2556017, 0, 0, 2556018, 0, 0, 2556019, 0, 0, 2556020, 0, 0, 2556021, 0, 0 )

[node name="TileMap" type="TileMap" parent="."]
tile_set = SubResource( 52 )
format = 1
tile_data = PoolIntArray( 0, -1610612719, 0, 1, -1610612719, 0, 2, -1610612719, 0, 3, -1610612719, 0, 4, -1610612719, 0, 5, -1610612719, 0, 6, -1610612719, 0, 7, -1610612719, 0, 8, -1610612719, 0, 9, -1610612719, 0, 10, -1610612719, 0, 11, -1610612719, 0, 12, -1610612719, 0, 13, -1610612719, 0, 14, -1610612719, 0, 15, -1610612719, 0, 22, -1610612719, 0, 23, -1610612719, 0, 24, -1610612719, 0, 25, -1610612719, 0, 26, -1610612719, 0, 27, -1610612719, 0, 28, -1610612719, 0, 41, -1610612719, 0, 42, -1610612719, 0, 43, -1610612719, 0, 44, -1610612719, 0, 45, -1610612719, 0, 46, -1610612719, 0, 47, -1610612719, 0, 48, -1610612719, 0, 49, -1610612719, 0, 50, -1610612719, 0, 51, -1610612719, 0, 52, -1610612719, 0, 53, -1610612719, 0, 54, -1610612719, 0, 55, -1610612719, 0, 56, -1610612719, 0, 57, -1610612719, 0, 58, -1610612719, 0, 59, -1610612719, 0, 65536, -1610612719, 0, 65551, -1610612719, 0, 65558, -1610612719, 0, 65564, -1610612719, 0, 65565, -1610612719, 0, 65566, -1610612719, 0, 65567, -1610612719, 0, 65568, -1610612719, 0, 65569, -1610612719, 0, 65570, -1610612719, 0, 65571, -1610612719, 0, 65572, -1610612719, 0, 65573, 17, 0, 65574, 17, 0, 65575, 17, 0, 65576, 17, 0, 65577, -1610612719, 0, 65581, 17, 0, 65595, -1610612719, 0, 131072, -1610612719, 0, 131075, -1610612719, 0, 131076, -1610612719, 0, 131077, -1610612719, 0, 131078, -1610612719, 0, 131079, -1610612719, 0, 131087, -1610612719, 0, 131094, -1610612719, 0, 131113, -1610612719, 0, 131117, 17, 0, 131119, 17, 0, 131131, -1610612719, 0, 196608, -1610612719, 0, 196611, -1610612719, 0, 196623, -1610612719, 0, 196630, -1610612719, 0, 196636, -1610612719, 0, 196637, -1610612719, 0, 196638, -1610612719, 0, 196639, -1610612719, 0, 196640, -1610612719, 0, 196641, -1610612719, 0, 196642, -1610612719, 0, 196644, -1610612719, 0, 196649, -1610612719, 0, 196653, 17, 0, 196655, 17, 0, 196667, -1610612719, 0, 262144, -1610612719, 0, 262147, -1610612719, 0, 262151, -1610612719, 0, 262157, -1610612719, 0, 262159, -1610612719, 0, 262166, -1610612719, 0, 262169, -1610612719, 0, 262170, -1610612719, 0, 262171, -1610612719, 0, 262172, -1610612719, 0, 262178, -1610612719, 0, 262180, -1610612719, 0, 262185, -1610612719, 0, 262189, 17, 0, 262191, 17, 0, 262193, 17, 0, 262194, 17, 0, 262195, 17, 0, 262196, 17, 0, 262197, 17, 0, 262198, 17, 0, 262199, 17, 0, 262200, 17, 0, 262201, 17, 0, 262202, 17, 0, 262203, -1610612719, 0, 262204, 17, 0, 262205, 17, 0, 262206, 17, 0, 262207, 17, 0, 262208, 17, 0, 262209, 17, 0, 262210, 17, 0, 262211, 17, 0, 262212, 17, 0, 262213, 17, 0, 262214, 17, 0, 262215, 17, 0, 262216, 17, 0, 262217, 17, 0, 262218, 17, 0, 262219, 17, 0, 327680, -1610612719, 0, 327683, -1610612719, 0, 327689, -1610612719, 0, 327693, -1610612719, 0, 327695, -1610612719, 0, 327696, -1610612719, 0, 327697, -1610612719, 0, 327698, -1610612719, 0, 327699, -1610612719, 0, 327700, -1610612719, 0, 327701, -1610612719, 0, 327702, -1610612719, 0, 327705, -1610612719, 0, 327714, -1610612719, 0, 327716, -1610612719, 0, 327721, -1610612719, 0, 327722, 17, 0, 327724, 17, 0, 327725, 17, 0, 327727, 17, 0, 327755, 17, 0, 393216, -1610612719, 0, 393219, -1610612719, 0, 393229, -1610612719, 0, 393241, -1610612719, 0, 393250, -1610612719, 0, 393252, -1610612719, 0, 393257, -1610612719, 0, 393263, 17, 0, 393264, 17, 0, 393265, 17, 0, 393267, 17, 0, 393269, 17, 0, 393270, 17, 0, 393271, 17, 0, 393272, 17, 0, 393273, 17, 0, 393275, -1610612719, 0, 393276, 17, 0, 393277, 17, 0, 393278, 17, 0, 393279, 17, 0, 393280, 17, 0, 393281, 17, 0, 393282, 17, 0, 393283, 17, 0, 393284, 17, 0, 393291, 17, 0, 458752, -1610612719, 0, 458761, -1610612719, 0, 458762, -1610612719, 0, 458763, -1610612719, 0, 458764, -1610612719, 0, 458765, -1610612719, 0, 458767, -1610612719, 0, 458768, -1610612719, 0, 458769, -1610612719, 0, 458770, -1610612719, 0, 458771, -1610612719, 0, 458772, -1610612719, 0, 458773, -1610612719, 0, 458774, -1610612719, 0, 458777, -1610612719, 0, 458778, -1610612719, 0, 458779, -1610612719, 0, 458780, -1610612719, 0, 458786, -1610612719, 0, 458788, -1610612719, 0, 458793, -1610612719, 0, 458799, 17, 0, 458803, 17, 0, 458807, 17, 0, 458811, -1610612719, 0, 458820, 17, 0, 458822, 17, 0, 458825, 17, 0, 458827, 17, 0, 524288, -1610612719, 0, 524303, -1610612719, 0, 524310, -1610612719, 0, 524316, -1610612719, 0, 524317, -1610612719, 0, 524318, -1610612719, 0, 524319, -1610612719, 0, 524320, -1610612719, 0, 524321, -1610612719, 0, 524322, -1610612719, 0, 524324, -1610612719, 0, 524325, -1610612719, 0, 524326, -1610612719, 0, 524327, -1610612719, 0, 524328, -1610612719, 0, 524329, -1610612719, 0, 524335, 17, 0, 524339, 17, 0, 524343, 17, 0, 524347, -1610612719, 0, 524356, 17, 0, 524363, 17, 0, 589824, -1610612719, 0, 589825, -1610612719, 0, 589826, -1610612719, 0, 589827, -1610612719, 0, 589828, -1610612719, 0, 589829, -1610612719, 0, 589830, -1610612719, 0, 589831, -1610612719, 0, 589832, -1610612719, 0, 589833, -1610612719, 0, 589834, -1610612719, 0, 589835, -1610612719, 0, 589836, -1610612719, 0, 589837, -1610612719, 0, 589838, -1610612719, 0, 589839, -1610612719, 0, 589846, -1610612719, 0, 589871, 17, 0, 589875, 17, 0, 589879, 17, 0, 589883, -1610612719, 0, 589892, 17, 0, 589894, 17, 0, 589897, 17, 0, 589899, 17, 0, 655382, -1610612719, 0, 655388, -1610612719, 0, 655389, -1610612719, 0, 655390, -1610612719, 0, 655391, -1610612719, 0, 655392, -1610612719, 0, 655393, -1610612719, 0, 655394, -1610612719, 0, 655395, -1610612719, 0, 655396, -1610612719, 0, 655397, -1610612719, 0, 655398, -1610612719, 0, 655399, -1610612719, 0, 655400, -1610612719, 0, 655401, -1610612719, 0, 655407, 17, 0, 655411, 17, 0, 655415, 17, 0, 655419, -1610612719, 0, 655428, 17, 0, 655430, 17, 0, 655433, 17, 0, 655435, 17, 0, 720918, -1610612719, 0, 720919, -1610612719, 0, 720920, -1610612719, 0, 720921, -1610612719, 0, 720922, -1610612719, 0, 720923, -1610612719, 0, 720924, -1610612719, 0, 720937, -1610612719, 0, 720943, 17, 0, 720944, 17, 0, 720945, 17, 0, 720946, 17, 0, 720947, 17, 0, 720948, 17, 0, 720949, 17, 0, 720950, 17, 0, 720951, 17, 0, 720952, 17, 0, 720953, 17, 0, 720954, 17, 0, 720955, -1610612719, 0, 720964, 17, 0, 720971, 17, 0, 786473, -1610612719, 0, 786479, 17, 0, 786483, 17, 0, 786487, 17, 0, 786491, -1610612719, 0, 786500, 17, 0, 786501, 17, 0, 786502, 17, 0, 786503, 17, 0, 786505, 17, 0, 786506, 17, 0, 786507, 17, 0, 786508, 17, 0, 786509, 17, 0, 786510, 17, 0, 786511, 17, 0, 786512, 17, 0, 852009, -1610612719, 0, 852015, 17, 0, 852019, 17, 0, 852023, 17, 0, 852027, -1610612719, 0, 852039, 17, 0, 852041, 17, 0, 852048, 17, 0, 917545, -1610612719, 0, 917551, 17, 0, 917555, 17, 0, 917559, 17, 0, 917563, -1610612719, 0, 917575, 17, 0, 917577, 17, 0, 917584, 17, 0, 983081, -1610612719, 0, 983082, 17, 0, 983084, 17, 0, 983085, 17, 0, 983087, 17, 0, 983091, 17, 0, 983095, 17, 0, 983099, -1610612719, 0, 983111, 17, 0, 983113, 17, 0, 983120, 17, 0, 1048617, -1610612719, 0, 1048621, 17, 0, 1048623, 17, 0, 1048625, 17, 0, 1048626, 17, 0, 1048627, 17, 0, 1048628, 17, 0, 1048629, 17, 0, 1048631, 17, 0, 1048633, 17, 0, 1048634, 17, 0, 1048635, -1610612719, 0, 1048647, 17, 0, 1048656, 17, 0, 1114153, -1610612719, 0, 1114157, 17, 0, 1114159, 17, 0, 1114171, -1610612719, 0, 1114172, 17, 0, 1114173, 17, 0, 1114174, 17, 0, 1114175, 17, 0, 1114176, 17, 0, 1114177, 17, 0, 1114178, 17, 0, 1114179, 17, 0, 1114180, 17, 0, 1114181, 17, 0, 1114182, 17, 0, 1114183, 17, 0, 1114185, 17, 0, 1114192, 17, 0, 1179689, -1610612719, 0, 1179693, 17, 0, 1179695, 17, 0, 1179721, 17, 0, 1179728, 17, 0, 1245225, -1610612719, 0, 1245229, 17, 0, 1245231, 17, 0, 1245243, -1610612719, 0, 1245244, 17, 0, 1245245, 17, 0, 1245246, 17, 0, 1245247, 17, 0, 1245248, 17, 0, 1245249, 17, 0, 1245250, 17, 0, 1245251, 17, 0, 1245252, 17, 0, 1245253, 17, 0, 1245254, 17, 0, 1245255, 17, 0, 1245256, 17, 0, 1245257, 17, 0, 1245258, 17, 0, 1245259, 17, 0, 1245260, 17, 0, 1245261, 17, 0, 1245262, 17, 0, 1245263, 17, 0, 1245264, 17, 0, 1310761, -1610612719, 0, 1310762, -1610612719, 0, 1310763, -1610612719, 0, 1310764, -1610612719, 0, 1310765, -1610612719, 0, 1310766, -1610612719, 0, 1310767, -1610612719, 0, 1310768, -1610612719, 0, 1310769, -1610612719, 0, 1310770, -1610612719, 0, 1310771, -1610612719, 0, 1310772, -1610612719, 0, 1310773, -1610612719, 0, 1310774, -1610612719, 0, 1310775, -1610612719, 0, 1310776, -1610612719, 0, 1310777, -1610612719, 0, 1310778, -1610612719, 0, 1310779, -1610612719, 0 )

[node name="line" type="Line2D" parent="." groups=[
"line",
]]
width = 2.0

[node name="player" type="KinematicBody2D" parent="." groups=[
"jugador",
]]
position = Vector2( 122.502, 110.891 )
script = ExtResource( 3 )

[node name="anim" type="AnimatedSprite" parent="player"]
rotation = -1.5708
frames = SubResource( 53 )
animation = "parado"
playing = true

[node name="arma" type="Sprite" parent="player"]
position = Vector2( 0.250092, -0.0113678 )
texture = ExtResource( 7 )
offset = Vector2( 16, 0 )

[node name="spBalas" type="Position2D" parent="player/arma"]
position = Vector2( 16.9986, -0.135094 )

[node name="CollisionShape2D" type="CollisionShape2D" parent="player"]
shape = SubResource( 54 )

[node name="Camera2D" type="Camera2D" parent="player"]
current = true

[node name="Light2D" type="Light2D" parent="player"]
texture = ExtResource( 8 )
texture_scale = 3.0
energy = 3.0
shadow_enabled = true

[node name="temp" type="Timer" parent="player"]
wait_time = 0.2
autostart = true

[node name="mira" type="RayCast2D" parent="player"]
position = Vector2( 15.0941, 0 )
enabled = true
cast_to = Vector2( 300, 0 )

[node name="gui" type="CanvasLayer" parent="."]

[node name="ColorRect" type="ColorRect" parent="gui"]
margin_right = 1024.0
margin_bottom = 600.0
color = Color( 0.0392157, 0.0666667, 0.207843, 0.827451 )

[node name="Label" type="Label" parent="gui"]
margin_left = 31.0
margin_top = 32.0
margin_right = 329.0
margin_bottom = 46.0
text = "- Use el botón izquierdo del ratón para moverse"
__meta__ = {
"_edit_use_anchors_": false
}

[node name="nav" type="Navigation2D" parent="." groups=[
"nav",
]]

[node name="nav" type="TileMap" parent="nav"]
visible = false
position = Vector2( 16, 16 )
tile_set = SubResource( 56 )
cell_size = Vector2( 32, 32 )
format = 1
tile_data = PoolIntArray( 131074, 0, 0, 131075, 0, 0, 131076, 0, 0, 131077, 0, 0, 131078, 0, 0, 131079, 0, 0, 131080, 0, 0, 131081, 0, 0, 131082, 0, 0, 131083, 0, 0, 131084, 0, 0, 131085, 0, 0, 131086, 0, 0, 131087, 0, 0, 131088, 0, 0, 131089, 0, 0, 131090, 0, 0, 131091, 0, 0, 131092, 0, 0, 131093, 0, 0, 131094, 0, 0, 131095, 0, 0, 131096, 0, 0, 131097, 0, 0, 131098, 0, 0, 131099, 0, 0, 131100, 0, 0, 131118, 0, 0, 131119, 0, 0, 131120, 0, 0, 131121, 0, 0, 131122, 0, 0, 131123, 0, 0, 131124, 0, 0, 131125, 0, 0, 131126, 0, 0, 131156, 0, 0, 131157, 0, 0, 131158, 0, 0, 131159, 0, 0, 131160, 0, 0, 131164, 0, 0, 131165, 0, 0, 131166, 0, 0, 131167, 0, 0, 131168, 0, 0, 131169, 0, 0, 131170, 0, 0, 131171, 0, 0, 131172, 0, 0, 131173, 0, 0, 131174, 0, 0, 131175, 0, 0, 131176, 0, 0, 131177, 0, 0, 131178, 0, 0, 131179, 0, 0, 131180, 0, 0, 131181, 0, 0, 131182, 0, 0, 131183, 0, 0, 131184, 0, 0, 131185, 0, 0, 131186, 0, 0, 131187, 0, 0, 131188, 0, 0, 196610, 0, 0, 196611, 0, 0, 196612, 0, 0, 196624, 0, 0, 196625, 0, 0, 196626, 0, 0, 196627, 0, 0, 196628, 0, 0, 196629, 0, 0, 196630, 0, 0, 196631, 0, 0, 196632, 0, 0, 196633, 0, 0, 196634, 0, 0, 196635, 0, 0, 196636, 0, 0, 196654, 0, 0, 196655, 0, 0, 196656, 0, 0, 196657, 0, 0, 196658, 0, 0, 196659, 0, 0, 196660, 0, 0, 196661, 0, 0, 196662, 0, 0, 196692, 0, 0, 196693, 0, 0, 196694, 0, 0, 196695, 0, 0, 196696, 0, 0, 196700, 0, 0, 196704, 0, 0, 196705, 0, 0, 196706, 0, 0, 196707, 0, 0, 196708, 0, 0, 196709, 0, 0, 196710, 0, 0, 196711, 0, 0, 196712, 0, 0, 196713, 0, 0, 196714, 0, 0, 196715, 0, 0, 196716, 0, 0, 196717, 0, 0, 196718, 0, 0, 196719, 0, 0, 196720, 0, 0, 196721, 0, 0, 196722, 0, 0, 196723, 0, 0, 196724, 0, 0, 262146, 0, 0, 262147, 0, 0, 262148, 0, 0, 262160, 0, 0, 262161, 0, 0, 262162, 0, 0, 262163, 0, 0, 262164, 0, 0, 262165, 0, 0, 262166, 0, 0, 262167, 0, 0, 262168, 0, 0, 262169, 0, 0, 262170, 0, 0, 262171, 0, 0, 262172, 0, 0, 262190, 0, 0, 262191, 0, 0, 262192, 0, 0, 262193, 0, 0, 262194, 0, 0, 262195, 0, 0, 262196, 0, 0, 262197, 0, 0, 262198, 0, 0, 262199, 0, 0, 262200, 0, 0, 262201, 0, 0, 262202, 0, 0, 262203, 0, 0, 262204, 0, 0, 262205, 0, 0, 262206, 0, 0, 262207, 0, 0, 262208, 0, 0, 262209, 0, 0, 262210, 0, 0, 262211, 0, 0, 262212, 0, 0, 262213, 0, 0, 262214, 0, 0, 262215, 0, 0, 262216, 0, 0, 262217, 0, 0, 262218, 0, 0, 262219, 0, 0, 262220, 0, 0, 262221, 0, 0, 262222, 0, 0, 262223, 0, 0, 262224, 0, 0, 262228, 0, 0, 262229, 0, 0, 262230, 0, 0, 262231, 0, 0, 262232, 0, 0, 262236, 0, 0, 262240, 0, 0, 262241, 0, 0, 262242, 0, 0, 262243, 0, 0, 262244, 0, 0, 262245, 0, 0, 262246, 0, 0, 262247, 0, 0, 262248, 0, 0, 262249, 0, 0, 262250, 0, 0, 262251, 0, 0, 262252, 0, 0, 262253, 0, 0, 262254, 0, 0, 262255, 0, 0, 262256, 0, 0, 262257, 0, 0, 262258, 0, 0, 262259, 0, 0, 262260, 0, 0, 327682, 0, 0, 327683, 0, 0, 327684, 0, 0, 327696, 0, 0, 327697, 0, 0, 327698, 0, 0, 327699, 0, 0, 327700, 0, 0, 327701, 0, 0, 327702, 0, 0, 327703, 0, 0, 327704, 0, 0, 327705, 0, 0, 327706, 0, 0, 327707, 0, 0, 327708, 0, 0, 327726, 0, 0, 327727, 0, 0, 327728, 0, 0, 327729, 0, 0, 327730, 0, 0, 327731, 0, 0, 327732, 0, 0, 327733, 0, 0, 327734, 0, 0, 327750, 0, 0, 327754, 0, 0, 327755, 0, 0, 327756, 0, 0, 327757, 0, 0, 327758, 0, 0, 327759, 0, 0, 327760, 0, 0, 327764, 0, 0, 327765, 0, 0, 327766, 0, 0, 327767, 0, 0, 327768, 0, 0, 327772, 0, 0, 327776, 0, 0, 327777, 0, 0, 327778, 0, 0, 327779, 0, 0, 327780, 0, 0, 327781, 0, 0, 327782, 0, 0, 327783, 0, 0, 327784, 0, 0, 327785, 0, 0, 327786, 0, 0, 327787, 0, 0, 327788, 0, 0, 327789, 0, 0, 327790, 0, 0, 327791, 0, 0, 327792, 0, 0, 327793, 0, 0, 327794, 0, 0, 327795, 0, 0, 327796, 0, 0, 393218, 0, 0, 393219, 0, 0, 393220, 0, 0, 393224, 0, 0, 393225, 0, 0, 393226, 0, 0, 393227, 0, 0, 393228, 0, 0, 393229, 0, 0, 393230, 0, 0, 393231, 0, 0, 393232, 0, 0, 393233, 0, 0, 393234, 0, 0, 393235, 0, 0, 393236, 0, 0, 393237, 0, 0, 393238, 0, 0, 393239, 0, 0, 393240, 0, 0, 393241, 0, 0, 393242, 0, 0, 393243, 0, 0, 393244, 0, 0, 393262, 0, 0, 393263, 0, 0, 393264, 0, 0, 393265, 0, 0, 393266, 0, 0, 393267, 0, 0, 393268, 0, 0, 393269, 0, 0, 393270, 0, 0, 393286, 0, 0, 393290, 0, 0, 393291, 0, 0, 393292, 0, 0, 393293, 0, 0, 393294, 0, 0, 393295, 0, 0, 393296, 0, 0, 393300, 0, 0, 393301, 0, 0, 393302, 0, 0, 393303, 0, 0, 393304, 0, 0, 393308, 0, 0, 393312, 0, 0, 393313, 0, 0, 393314, 0, 0, 393315, 0, 0, 393316, 0, 0, 393317, 0, 0, 393318, 0, 0, 393319, 0, 0, 393320, 0, 0, 393321, 0, 0, 393322, 0, 0, 393323, 0, 0, 393324, 0, 0, 393325, 0, 0, 393326, 0, 0, 393327, 0, 0, 393328, 0, 0, 393329, 0, 0, 393330, 0, 0, 393331, 0, 0, 393332, 0, 0, 458754, 0, 0, 458755, 0, 0, 458756, 0, 0, 458760, 0, 0, 458761, 0, 0, 458762, 0, 0, 458763, 0, 0, 458764, 0, 0, 458768, 0, 0, 458769, 0, 0, 458770, 0, 0, 458771, 0, 0, 458772, 0, 0, 458773, 0, 0, 458774, 0, 0, 458775, 0, 0, 458776, 0, 0, 458780, 0, 0, 458798, 0, 0, 458799, 0, 0, 458800, 0, 0, 458822, 0, 0, 458826, 0, 0, 458827, 0, 0, 458828, 0, 0, 458829, 0, 0, 458830, 0, 0, 458831, 0, 0, 458832, 0, 0, 458836, 0, 0, 458837, 0, 0, 458838, 0, 0, 458839, 0, 0, 458840, 0, 0, 458844, 0, 0, 458848, 0, 0, 524290, 0, 0, 524291, 0, 0, 524292, 0, 0, 524296, 0, 0, 524297, 0, 0, 524298, 0, 0, 524299, 0, 0, 524300, 0, 0, 524304, 0, 0, 524305, 0, 0, 524306, 0, 0, 524307, 0, 0, 524308, 0, 0, 524309, 0, 0, 524310, 0, 0, 524311, 0, 0, 524312, 0, 0, 524316, 0, 0, 524334, 0, 0, 524335, 0, 0, 524336, 0, 0, 524358, 0, 0, 524362, 0, 0, 524363, 0, 0, 524364, 0, 0, 524365, 0, 0, 524366, 0, 0, 524367, 0, 0, 524368, 0, 0, 524372, 0, 0, 524373, 0, 0, 524374, 0, 0, 524375, 0, 0, 524376, 0, 0, 524380, 0, 0, 524384, 0, 0, 589826, 0, 0, 589827, 0, 0, 589828, 0, 0, 589832, 0, 0, 589833, 0, 0, 589834, 0, 0, 589835, 0, 0, 589836, 0, 0, 589840, 0, 0, 589844, 0, 0, 589845, 0, 0, 589846, 0, 0, 589847, 0, 0, 589848, 0, 0, 589852, 0, 0, 589870, 0, 0, 589871, 0, 0, 589872, 0, 0, 589894, 0, 0, 589898, 0, 0, 589899, 0, 0, 589900, 0, 0, 589901, 0, 0, 589902, 0, 0, 589903, 0, 0, 589904, 0, 0, 589910, 0, 0, 589916, 0, 0, 589920, 0, 0, 655362, 0, 0, 655363, 0, 0, 655364, 0, 0, 655368, 0, 0, 655369, 0, 0, 655370, 0, 0, 655371, 0, 0, 655372, 0, 0, 655373, 0, 0, 655374, 0, 0, 655375, 0, 0, 655376, 0, 0, 655380, 0, 0, 655381, 0, 0, 655382, 0, 0, 655383, 0, 0, 655384, 0, 0, 655388, 0, 0, 655406, 0, 0, 655407, 0, 0, 655408, 0, 0, 655430, 0, 0, 655434, 0, 0, 655435, 0, 0, 655436, 0, 0, 655437, 0, 0, 655438, 0, 0, 655439, 0, 0, 655440, 0, 0, 655446, 0, 0, 655452, 0, 0, 655456, 0, 0, 655457, 0, 0, 655458, 0, 0, 655459, 0, 0, 655460, 0, 0, 655461, 0, 0, 655462, 0, 0, 655463, 0, 0, 655464, 0, 0, 655465, 0, 0, 655466, 0, 0, 655467, 0, 0, 655468, 0, 0, 655469, 0, 0, 655470, 0, 0, 655471, 0, 0, 655472, 0, 0, 655473, 0, 0, 655474, 0, 0, 655475, 0, 0, 655476, 0, 0, 655477, 0, 0, 655478, 0, 0, 655479, 0, 0, 655480, 0, 0, 655481, 0, 0, 655482, 0, 0, 655483, 0, 0, 655484, 0, 0, 655485, 0, 0, 655486, 0, 0, 655487, 0, 0, 655488, 0, 0, 655489, 0, 0, 655490, 0, 0, 655491, 0, 0, 655492, 0, 0, 655493, 0, 0, 655494, 0, 0, 655495, 0, 0, 655496, 0, 0, 655497, 0, 0, 655498, 0, 0, 655499, 0, 0, 655500, 0, 0, 655501, 0, 0, 655502, 0, 0, 655503, 0, 0, 655504, 0, 0, 655505, 0, 0, 655506, 0, 0, 655507, 0, 0, 655508, 0, 0, 720898, 0, 0, 720899, 0, 0, 720900, 0, 0, 720904, 0, 0, 720905, 0, 0, 720906, 0, 0, 720907, 0, 0, 720908, 0, 0, 720909, 0, 0, 720910, 0, 0, 720911, 0, 0, 720912, 0, 0, 720916, 0, 0, 720917, 0, 0, 720918, 0, 0, 720919, 0, 0, 720920, 0, 0, 720924, 0, 0, 720942, 0, 0, 720943, 0, 0, 720944, 0, 0, 720966, 0, 0, 720970, 0, 0, 720971, 0, 0, 720972, 0, 0, 720973, 0, 0, 720974, 0, 0, 720975, 0, 0, 720976, 0, 0, 720982, 0, 0, 720988, 0, 0, 720996, 0, 0, 721000, 0, 0, 721012, 0, 0, 721034, 0, 0, 721035, 0, 0, 721036, 0, 0, 721037, 0, 0, 721038, 0, 0, 721039, 0, 0, 721040, 0, 0, 721041, 0, 0, 721042, 0, 0, 721043, 0, 0, 721044, 0, 0, 786434, 0, 0, 786435, 0, 0, 786436, 0, 0, 786440, 0, 0, 786441, 0, 0, 786442, 0, 0, 786443, 0, 0, 786444, 0, 0, 786445, 0, 0, 786446, 0, 0, 786447, 0, 0, 786448, 0, 0, 786449, 0, 0, 786450, 0, 0, 786451, 0, 0, 786452, 0, 0, 786453, 0, 0, 786454, 0, 0, 786455, 0, 0, 786456, 0, 0, 786460, 0, 0, 786461, 0, 0, 786462, 0, 0, 786463, 0, 0, 786464, 0, 0, 786465, 0, 0, 786466, 0, 0, 786467, 0, 0, 786468, 0, 0, 786469, 0, 0, 786470, 0, 0, 786471, 0, 0, 786472, 0, 0, 786473, 0, 0, 786474, 0, 0, 786475, 0, 0, 786476, 0, 0, 786477, 0, 0, 786478, 0, 0, 786479, 0, 0, 786480, 0, 0, 786502, 0, 0, 786506, 0, 0, 786507, 0, 0, 786508, 0, 0, 786509, 0, 0, 786510, 0, 0, 786511, 0, 0, 786512, 0, 0, 786516, 0, 0, 786517, 0, 0, 786518, 0, 0, 786519, 0, 0, 786520, 0, 0, 786521, 0, 0, 786522, 0, 0, 786523, 0, 0, 786524, 0, 0, 786532, 0, 0, 786536, 0, 0, 786548, 0, 0, 786570, 0, 0, 786571, 0, 0, 786572, 0, 0, 786573, 0, 0, 786574, 0, 0, 786575, 0, 0, 786576, 0, 0, 786577, 0, 0, 786578, 0, 0, 786579, 0, 0, 786580, 0, 0, 851970, 0, 0, 851971, 0, 0, 851972, 0, 0, 851976, 0, 0, 851977, 0, 0, 851978, 0, 0, 851979, 0, 0, 851980, 0, 0, 851981, 0, 0, 851982, 0, 0, 851983, 0, 0, 851984, 0, 0, 851996, 0, 0, 852014, 0, 0, 852015, 0, 0, 852016, 0, 0, 852038, 0, 0, 852042, 0, 0, 852043, 0, 0, 852044, 0, 0, 852045, 0, 0, 852046, 0, 0, 852047, 0, 0, 852048, 0, 0, 852052, 0, 0, 852053, 0, 0, 852054, 0, 0, 852055, 0, 0, 852056, 0, 0, 852057, 0, 0, 852058, 0, 0, 852059, 0, 0, 852060, 0, 0, 852068, 0, 0, 852072, 0, 0, 852084, 0, 0, 852106, 0, 0, 852110, 0, 0, 852111, 0, 0, 852112, 0, 0, 852116, 0, 0, 917506, 0, 0, 917507, 0, 0, 917508, 0, 0, 917509, 0, 0, 917510, 0, 0, 917511, 0, 0, 917512, 0, 0, 917513, 0, 0, 917514, 0, 0, 917515, 0, 0, 917516, 0, 0, 917517, 0, 0, 917518, 0, 0, 917519, 0, 0, 917520, 0, 0, 917532, 0, 0, 917550, 0, 0, 917551, 0, 0, 917552, 0, 0, 917574, 0, 0, 917578, 0, 0, 917579, 0, 0, 917580, 0, 0, 917581, 0, 0, 917582, 0, 0, 917583, 0, 0, 917584, 0, 0, 917588, 0, 0, 917589, 0, 0, 917590, 0, 0, 917591, 0, 0, 917592, 0, 0, 917593, 0, 0, 917594, 0, 0, 917595, 0, 0, 917596, 0, 0, 917600, 0, 0, 917601, 0, 0, 917602, 0, 0, 917603, 0, 0, 917604, 0, 0, 917608, 0, 0, 917609, 0, 0, 917610, 0, 0, 917611, 0, 0, 917612, 0, 0, 917616, 0, 0, 917617, 0, 0, 917618, 0, 0, 917619, 0, 0, 917620, 0, 0, 917642, 0, 0, 917646, 0, 0, 917647, 0, 0, 917648, 0, 0, 917652, 0, 0, 983042, 0, 0, 983043, 0, 0, 983044, 0, 0, 983045, 0, 0, 983046, 0, 0, 983047, 0, 0, 983048, 0, 0, 983049, 0, 0, 983050, 0, 0, 983051, 0, 0, 983052, 0, 0, 983053, 0, 0, 983054, 0, 0, 983055, 0, 0, 983056, 0, 0, 983068, 0, 0, 983086, 0, 0, 983087, 0, 0, 983088, 0, 0, 983110, 0, 0, 983124, 0, 0, 983125, 0, 0, 983126, 0, 0, 983127, 0, 0, 983128, 0, 0, 983129, 0, 0, 983130, 0, 0, 983131, 0, 0, 983132, 0, 0, 983136, 0, 0, 983137, 0, 0, 983138, 0, 0, 983139, 0, 0, 983140, 0, 0, 983144, 0, 0, 983145, 0, 0, 983146, 0, 0, 983147, 0, 0, 983148, 0, 0, 983152, 0, 0, 983153, 0, 0, 983154, 0, 0, 983155, 0, 0, 983156, 0, 0, 983178, 0, 0, 983182, 0, 0, 983183, 0, 0, 983184, 0, 0, 983188, 0, 0, 1048578, 0, 0, 1048579, 0, 0, 1048580, 0, 0, 1048581, 0, 0, 1048582, 0, 0, 1048583, 0, 0, 1048584, 0, 0, 1048585, 0, 0, 1048586, 0, 0, 1048587, 0, 0, 1048588, 0, 0, 1048589, 0, 0, 1048590, 0, 0, 1048591, 0, 0, 1048592, 0, 0, 1048593, 0, 0, 1048594, 0, 0, 1048595, 0, 0, 1048596, 0, 0, 1048597, 0, 0, 1048598, 0, 0, 1048599, 0, 0, 1048600, 0, 0, 1048601, 0, 0, 1048602, 0, 0, 1048603, 0, 0, 1048604, 0, 0, 1048622, 0, 0, 1048623, 0, 0, 1048624, 0, 0, 1048625, 0, 0, 1048626, 0, 0, 1048627, 0, 0, 1048628, 0, 0, 1048629, 0, 0, 1048630, 0, 0, 1048646, 0, 0, 1048660, 0, 0, 1048661, 0, 0, 1048662, 0, 0, 1048663, 0, 0, 1048664, 0, 0, 1048665, 0, 0, 1048666, 0, 0, 1048667, 0, 0, 1048668, 0, 0, 1048672, 0, 0, 1048673, 0, 0, 1048674, 0, 0, 1048675, 0, 0, 1048676, 0, 0, 1048680, 0, 0, 1048681, 0, 0, 1048682, 0, 0, 1048683, 0, 0, 1048684, 0, 0, 1048688, 0, 0, 1048689, 0, 0, 1048690, 0, 0, 1048691, 0, 0, 1048692, 0, 0, 1048714, 0, 0, 1048715, 0, 0, 1048716, 0, 0, 1048717, 0, 0, 1048718, 0, 0, 1048719, 0, 0, 1048720, 0, 0, 1048721, 0, 0, 1048722, 0, 0, 1048723, 0, 0, 1048724, 0, 0, 1114158, 0, 0, 1114159, 0, 0, 1114160, 0, 0, 1114161, 0, 0, 1114162, 0, 0, 1114163, 0, 0, 1114164, 0, 0, 1114165, 0, 0, 1114166, 0, 0, 1114182, 0, 0, 1114196, 0, 0, 1114197, 0, 0, 1114198, 0, 0, 1114199, 0, 0, 1114200, 0, 0, 1114201, 0, 0, 1114202, 0, 0, 1114203, 0, 0, 1114204, 0, 0, 1114208, 0, 0, 1114209, 0, 0, 1114210, 0, 0, 1114211, 0, 0, 1114212, 0, 0, 1114216, 0, 0, 1114217, 0, 0, 1114218, 0, 0, 1114219, 0, 0, 1114220, 0, 0, 1114224, 0, 0, 1114225, 0, 0, 1114226, 0, 0, 1114227, 0, 0, 1114228, 0, 0, 1114250, 0, 0, 1114254, 0, 0, 1114255, 0, 0, 1114256, 0, 0, 1114260, 0, 0, 1179694, 0, 0, 1179695, 0, 0, 1179696, 0, 0, 1179697, 0, 0, 1179698, 0, 0, 1179699, 0, 0, 1179700, 0, 0, 1179701, 0, 0, 1179702, 0, 0, 1179703, 0, 0, 1179704, 0, 0, 1179705, 0, 0, 1179706, 0, 0, 1179707, 0, 0, 1179708, 0, 0, 1179709, 0, 0, 1179710, 0, 0, 1179711, 0, 0, 1179712, 0, 0, 1179713, 0, 0, 1179714, 0, 0, 1179715, 0, 0, 1179716, 0, 0, 1179717, 0, 0, 1179718, 0, 0, 1179719, 0, 0, 1179720, 0, 0, 1179721, 0, 0, 1179722, 0, 0, 1179723, 0, 0, 1179724, 0, 0, 1179725, 0, 0, 1179726, 0, 0, 1179727, 0, 0, 1179728, 0, 0, 1179729, 0, 0, 1179730, 0, 0, 1179731, 0, 0, 1179732, 0, 0, 1179733, 0, 0, 1179734, 0, 0, 1179735, 0, 0, 1179736, 0, 0, 1179737, 0, 0, 1179738, 0, 0, 1179739, 0, 0, 1179740, 0, 0, 1179744, 0, 0, 1179745, 0, 0, 1179746, 0, 0, 1179747, 0, 0, 1179748, 0, 0, 1179752, 0, 0, 1179753, 0, 0, 1179754, 0, 0, 1179755, 0, 0, 1179756, 0, 0, 1179760, 0, 0, 1179761, 0, 0, 1179762, 0, 0, 1179763, 0, 0, 1179764, 0, 0, 1179786, 0, 0, 1179790, 0, 0, 1179791, 0, 0, 1179792, 0, 0, 1179796, 0, 0, 1245230, 0, 0, 1245231, 0, 0, 1245232, 0, 0, 1245233, 0, 0, 1245234, 0, 0, 1245235, 0, 0, 1245236, 0, 0, 1245237, 0, 0, 1245238, 0, 0, 1245268, 0, 0, 1245269, 0, 0, 1245270, 0, 0, 1245271, 0, 0, 1245272, 0, 0, 1245273, 0, 0, 1245274, 0, 0, 1245275, 0, 0, 1245276, 0, 0, 1245280, 0, 0, 1245281, 0, 0, 1245282, 0, 0, 1245283, 0, 0, 1245284, 0, 0, 1245288, 0, 0, 1245289, 0, 0, 1245290, 0, 0, 1245291, 0, 0, 1245292, 0, 0, 1245296, 0, 0, 1245297, 0, 0, 1245298, 0, 0, 1245299, 0, 0, 1245300, 0, 0, 1245322, 0, 0, 1245326, 0, 0, 1245327, 0, 0, 1245328, 0, 0, 1245332, 0, 0, 1310766, 0, 0, 1310767, 0, 0, 1310768, 0, 0, 1310769, 0, 0, 1310770, 0, 0, 1310771, 0, 0, 1310772, 0, 0, 1310773, 0, 0, 1310774, 0, 0, 1310804, 0, 0, 1310805, 0, 0, 1310806, 0, 0, 1310807, 0, 0, 1310808, 0, 0, 1310809, 0, 0, 1310810, 0, 0, 1310811, 0, 0, 1310812, 0, 0, 1310816, 0, 0, 1310817, 0, 0, 1310818, 0, 0, 1310819, 0, 0, 1310820, 0, 0, 1310824, 0, 0, 1310825, 0, 0, 1310826, 0, 0, 1310827, 0, 0, 1310828, 0, 0, 1310832, 0, 0, 1310833, 0, 0, 1310834, 0, 0, 1310835, 0, 0, 1310836, 0, 0, 1310858, 0, 0, 1310862, 0, 0, 1310863, 0, 0, 1310864, 0, 0, 1310868, 0, 0, 1376340, 0, 0, 1376341, 0, 0, 1376342, 0, 0, 1376343, 0, 0, 1376344, 0, 0, 1376345, 0, 0, 1376346, 0, 0, 1376347, 0, 0, 1376348, 0, 0, 1376394, 0, 0, 1376398, 0, 0, 1376399, 0, 0, 1376400, 0, 0, 1376404, 0, 0, 1441876, 0, 0, 1441877, 0, 0, 1441878, 0, 0, 1441879, 0, 0, 1441880, 0, 0, 1441881, 0, 0, 1441882, 0, 0, 1441883, 0, 0, 1441884, 0, 0, 1441930, 0, 0, 1441931, 0, 0, 1441932, 0, 0, 1441933, 0, 0, 1441934, 0, 0, 1441935, 0, 0, 1441936, 0, 0, 1441937, 0, 0, 1441938, 0, 0, 1441939, 0, 0, 1441940, 0, 0, 1507412, 0, 0, 1507413, 0, 0, 1507414, 0, 0, 1507415, 0, 0, 1507416, 0, 0, 1507417, 0, 0, 1507418, 0, 0, 1507419, 0, 0, 1507420, 0, 0, 1507472, 0, 0, 1572948, 0, 0, 1572949, 0, 0, 1572950, 0, 0, 1572951, 0, 0, 1572952, 0, 0, 1572953, 0, 0, 1572954, 0, 0, 1572955, 0, 0, 1572956, 0, 0, 1572960, 0, 0, 1572961, 0, 0, 1572962, 0, 0, 1572963, 0, 0, 1572964, 0, 0, 1572968, 0, 0, 1572969, 0, 0, 1572970, 0, 0, 1572971, 0, 0, 1572972, 0, 0, 1572976, 0, 0, 1572977, 0, 0, 1572978, 0, 0, 1572979, 0, 0, 1572980, 0, 0, 1573008, 0, 0, 1638484, 0, 0, 1638485, 0, 0, 1638486, 0, 0, 1638487, 0, 0, 1638488, 0, 0, 1638489, 0, 0, 1638490, 0, 0, 1638491, 0, 0, 1638492, 0, 0, 1638496, 0, 0, 1638497, 0, 0, 1638498, 0, 0, 1638499, 0, 0, 1638500, 0, 0, 1638504, 0, 0, 1638505, 0, 0, 1638506, 0, 0, 1638507, 0, 0, 1638508, 0, 0, 1638512, 0, 0, 1638513, 0, 0, 1638514, 0, 0, 1638515, 0, 0, 1638516, 0, 0, 1638544, 0, 0, 1704020, 0, 0, 1704021, 0, 0, 1704022, 0, 0, 1704023, 0, 0, 1704024, 0, 0, 1704025, 0, 0, 1704026, 0, 0, 1704027, 0, 0, 1704028, 0, 0, 1704032, 0, 0, 1704033, 0, 0, 1704034, 0, 0, 1704035, 0, 0, 1704036, 0, 0, 1704040, 0, 0, 1704041, 0, 0, 1704042, 0, 0, 1704043, 0, 0, 1704044, 0, 0, 1704048, 0, 0, 1704049, 0, 0, 1704050, 0, 0, 1704051, 0, 0, 1704052, 0, 0, 1704080, 0, 0, 1704084, 0, 0, 1704085, 0, 0, 1704086, 0, 0, 1704087, 0, 0, 1704088, 0, 0, 1704089, 0, 0, 1704090, 0, 0, 1704091, 0, 0, 1704092, 0, 0, 1704093, 0, 0, 1704094, 0, 0, 1769556, 0, 0, 1769557, 0, 0, 1769558, 0, 0, 1769559, 0, 0, 1769560, 0, 0, 1769561, 0, 0, 1769562, 0, 0, 1769563, 0, 0, 1769564, 0, 0, 1769568, 0, 0, 1769569, 0, 0, 1769570, 0, 0, 1769571, 0, 0, 1769572, 0, 0, 1769576, 0, 0, 1769577, 0, 0, 1769578, 0, 0, 1769579, 0, 0, 1769580, 0, 0, 1769584, 0, 0, 1769585, 0, 0, 1769586, 0, 0, 1769587, 0, 0, 1769588, 0, 0, 1769616, 0, 0, 1769620, 0, 0, 1769621, 0, 0, 1769622, 0, 0, 1769623, 0, 0, 1769624, 0, 0, 1769625, 0, 0, 1769626, 0, 0, 1769627, 0, 0, 1769628, 0, 0, 1769629, 0, 0, 1769630, 0, 0, 1835092, 0, 0, 1835093, 0, 0, 1835094, 0, 0, 1835095, 0, 0, 1835096, 0, 0, 1835097, 0, 0, 1835098, 0, 0, 1835099, 0, 0, 1835100, 0, 0, 1835104, 0, 0, 1835105, 0, 0, 1835106, 0, 0, 1835107, 0, 0, 1835108, 0, 0, 1835112, 0, 0, 1835113, 0, 0, 1835114, 0, 0, 1835115, 0, 0, 1835116, 0, 0, 1835120, 0, 0, 1835121, 0, 0, 1835122, 0, 0, 1835123, 0, 0, 1835124, 0, 0, 1835152, 0, 0, 1835156, 0, 0, 1835157, 0, 0, 1835158, 0, 0, 1835159, 0, 0, 1835160, 0, 0, 1835161, 0, 0, 1835162, 0, 0, 1835163, 0, 0, 1835164, 0, 0, 1835165, 0, 0, 1835166, 0, 0, 1900630, 0, 0, 1900636, 0, 0, 1900640, 0, 0, 1900641, 0, 0, 1900642, 0, 0, 1900643, 0, 0, 1900644, 0, 0, 1900648, 0, 0, 1900649, 0, 0, 1900650, 0, 0, 1900651, 0, 0, 1900652, 0, 0, 1900656, 0, 0, 1900657, 0, 0, 1900658, 0, 0, 1900659, 0, 0, 1900660, 0, 0, 1900688, 0, 0, 1900692, 0, 0, 1900693, 0, 0, 1900694, 0, 0, 1900695, 0, 0, 1900696, 0, 0, 1900697, 0, 0, 1900698, 0, 0, 1900699, 0, 0, 1900700, 0, 0, 1900701, 0, 0, 1900702, 0, 0, 1966166, 0, 0, 1966172, 0, 0, 1966176, 0, 0, 1966177, 0, 0, 1966178, 0, 0, 1966179, 0, 0, 1966180, 0, 0, 1966184, 0, 0, 1966185, 0, 0, 1966186, 0, 0, 1966187, 0, 0, 1966188, 0, 0, 1966192, 0, 0, 1966193, 0, 0, 1966194, 0, 0, 1966195, 0, 0, 1966196, 0, 0, 1966224, 0, 0, 1966228, 0, 0, 1966229, 0, 0, 1966230, 0, 0, 1966231, 0, 0, 1966232, 0, 0, 1966233, 0, 0, 1966234, 0, 0, 1966235, 0, 0, 1966236, 0, 0, 1966237, 0, 0, 1966238, 0, 0, 2031702, 0, 0, 2031708, 0, 0, 2031712, 0, 0, 2031724, 0, 0, 2031728, 0, 0, 2031760, 0, 0, 2031764, 0, 0, 2031765, 0, 0, 2031766, 0, 0, 2031767, 0, 0, 2031768, 0, 0, 2031769, 0, 0, 2031770, 0, 0, 2031771, 0, 0, 2031772, 0, 0, 2031773, 0, 0, 2031774, 0, 0, 2097236, 0, 0, 2097237, 0, 0, 2097238, 0, 0, 2097239, 0, 0, 2097240, 0, 0, 2097244, 0, 0, 2097248, 0, 0, 2097260, 0, 0, 2097264, 0, 0, 2097296, 0, 0, 2097297, 0, 0, 2097298, 0, 0, 2097299, 0, 0, 2097300, 0, 0, 2097301, 0, 0, 2097302, 0, 0, 2097303, 0, 0, 2097304, 0, 0, 2097305, 0, 0, 2097306, 0, 0, 2097307, 0, 0, 2097308, 0, 0, 2097309, 0, 0, 2097310, 0, 0, 2162772, 0, 0, 2162773, 0, 0, 2162774, 0, 0, 2162775, 0, 0, 2162776, 0, 0, 2162780, 0, 0, 2162784, 0, 0, 2162796, 0, 0, 2162800, 0, 0, 2162832, 0, 0, 2162836, 0, 0, 2162837, 0, 0, 2162838, 0, 0, 2162839, 0, 0, 2162840, 0, 0, 2162841, 0, 0, 2162842, 0, 0, 2162843, 0, 0, 2162844, 0, 0, 2162845, 0, 0, 2162846, 0, 0, 2228308, 0, 0, 2228309, 0, 0, 2228310, 0, 0, 2228311, 0, 0, 2228312, 0, 0, 2228316, 0, 0, 2228320, 0, 0, 2228321, 0, 0, 2228322, 0, 0, 2228323, 0, 0, 2228324, 0, 0, 2228325, 0, 0, 2228326, 0, 0, 2228327, 0, 0, 2228328, 0, 0, 2228329, 0, 0, 2228330, 0, 0, 2228331, 0, 0, 2228332, 0, 0, 2228333, 0, 0, 2228334, 0, 0, 2228335, 0, 0, 2228336, 0, 0, 2228337, 0, 0, 2228338, 0, 0, 2228339, 0, 0, 2228340, 0, 0, 2228368, 0, 0, 2228372, 0, 0, 2228373, 0, 0, 2228374, 0, 0, 2228375, 0, 0, 2228376, 0, 0, 2228377, 0, 0, 2228378, 0, 0, 2228379, 0, 0, 2228380, 0, 0, 2228381, 0, 0, 2228382, 0, 0, 2293844, 0, 0, 2293845, 0, 0, 2293846, 0, 0, 2293847, 0, 0, 2293848, 0, 0, 2293852, 0, 0, 2293856, 0, 0, 2293857, 0, 0, 2293858, 0, 0, 2293859, 0, 0, 2293860, 0, 0, 2293861, 0, 0, 2293862, 0, 0, 2293863, 0, 0, 2293864, 0, 0, 2293865, 0, 0, 2293866, 0, 0, 2293867, 0, 0, 2293868, 0, 0, 2293869, 0, 0, 2293870, 0, 0, 2293871, 0, 0, 2293872, 0, 0, 2293873, 0, 0, 2293874, 0, 0, 2293875, 0, 0, 2293876, 0, 0, 2293904, 0, 0, 2293908, 0, 0, 2293909, 0, 0, 2293910, 0, 0, 2293911, 0, 0, 2293912, 0, 0, 2293913, 0, 0, 2293914, 0, 0, 2293915, 0, 0, 2293916, 0, 0, 2293917, 0, 0, 2293918, 0, 0, 2359380, 0, 0, 2359381, 0, 0, 2359382, 0, 0, 2359383, 0, 0, 2359384, 0, 0, 2359388, 0, 0, 2359392, 0, 0, 2359393, 0, 0, 2359394, 0, 0, 2359395, 0, 0, 2359396, 0, 0, 2359397, 0, 0, 2359398, 0, 0, 2359399, 0, 0, 2359400, 0, 0, 2359401, 0, 0, 2359402, 0, 0, 2359403, 0, 0, 2359404, 0, 0, 2359405, 0, 0, 2359406, 0, 0, 2359407, 0, 0, 2359408, 0, 0, 2359409, 0, 0, 2359410, 0, 0, 2359411, 0, 0, 2359412, 0, 0, 2359413, 0, 0, 2359414, 0, 0, 2359415, 0, 0, 2359416, 0, 0, 2359417, 0, 0, 2359418, 0, 0, 2359419, 0, 0, 2359420, 0, 0, 2359421, 0, 0, 2359422, 0, 0, 2359423, 0, 0, 2359424, 0, 0, 2359425, 0, 0, 2359426, 0, 0, 2359427, 0, 0, 2359428, 0, 0, 2359429, 0, 0, 2359430, 0, 0, 2359431, 0, 0, 2359432, 0, 0, 2359433, 0, 0, 2359434, 0, 0, 2359435, 0, 0, 2359436, 0, 0, 2359437, 0, 0, 2359438, 0, 0, 2359439, 0, 0, 2359440, 0, 0, 2359444, 0, 0, 2359445, 0, 0, 2359446, 0, 0, 2359447, 0, 0, 2359448, 0, 0, 2359449, 0, 0, 2359450, 0, 0, 2359451, 0, 0, 2359452, 0, 0, 2359453, 0, 0, 2359454, 0, 0, 2424916, 0, 0, 2424917, 0, 0, 2424918, 0, 0, 2424919, 0, 0, 2424920, 0, 0, 2424924, 0, 0, 2424928, 0, 0, 2424929, 0, 0, 2424930, 0, 0, 2424931, 0, 0, 2424932, 0, 0, 2424933, 0, 0, 2424934, 0, 0, 2424935, 0, 0, 2424936, 0, 0, 2424937, 0, 0, 2424938, 0, 0, 2424939, 0, 0, 2424940, 0, 0, 2424941, 0, 0, 2424942, 0, 0, 2424943, 0, 0, 2424944, 0, 0, 2424945, 0, 0, 2424946, 0, 0, 2424947, 0, 0, 2424948, 0, 0, 2490452, 0, 0, 2490453, 0, 0, 2490454, 0, 0, 2490455, 0, 0, 2490456, 0, 0, 2490460, 0, 0, 2490461, 0, 0, 2490462, 0, 0, 2490463, 0, 0, 2490464, 0, 0, 2490465, 0, 0, 2490466, 0, 0, 2490467, 0, 0, 2490468, 0, 0, 2490469, 0, 0, 2490470, 0, 0, 2490471, 0, 0, 2490472, 0, 0, 2490473, 0, 0, 2490474, 0, 0, 2490475, 0, 0, 2490476, 0, 0, 2490477, 0, 0, 2490478, 0, 0, 2490479, 0, 0, 2490480, 0, 0, 2490481, 0, 0, 2490482, 0, 0, 2490483, 0, 0, 2490484, 0, 0 )

[node name="enemigos" type="Node" parent="."]

[node name="enemigo" parent="enemigos" instance=ExtResource( 9 )]
position = Vector2( 294.657, 224.87 )

[node name="enemigo2" parent="enemigos" instance=ExtResource( 9 )]
position = Vector2( 148.657, 518.87 )

[node name="enemigo3" parent="enemigos" instance=ExtResource( 9 )]
position = Vector2( 615.657, 401.87 )

[node name="enemigo4" parent="enemigos" instance=ExtResource( 9 )]
position = Vector2( 921.657, 541.87 )

[node name="enemigo5" parent="enemigos" instance=ExtResource( 9 )]
position = Vector2( 1668.66, 601.87 )

[node name="enemigo6" parent="enemigos" instance=ExtResource( 9 )]
position = Vector2( 1699.66, 164.87 )

[node name="enemigo7" parent="enemigos" instance=ExtResource( 9 )]
position = Vector2( 2379.26, 344.345 )

[node name="enemigo8" parent="enemigos" instance=ExtResource( 9 )]
position = Vector2( 2540.55, 256.919 )

[node name="enemigo9" parent="enemigos" instance=ExtResource( 9 )]
position = Vector2( 2508.89, 412.175 )

[node name="enemigo10" parent="enemigos" instance=ExtResource( 9 )]
position = Vector2( 2413.93, 177.03 )

[node name="enemigo11" parent="enemigos" instance=ExtResource( 9 )]
position = Vector2( 2845.03, 612.651 )

[node name="enemigo12" parent="enemigos" instance=ExtResource( 9 )]
position = Vector2( 2781.72, 1153.79 )

[node name="enemigo13" parent="enemigos" instance=ExtResource( 9 )]
position = Vector2( 3157.05, 908.09 )

[node name="enemigo14" parent="enemigos" instance=ExtResource( 9 )]
position = Vector2( 3426.86, 891.509 )

[node name="enemigo15" parent="enemigos" instance=ExtResource( 9 )]
position = Vector2( 3677.08, 874.928 )

[node name="enemigo16" parent="enemigos" instance=ExtResource( 9 )]
position = Vector2( 3472.08, 1170.37 )

[node name="enemigo17" parent="enemigos" instance=ExtResource( 9 )]
position = Vector2( 3170.62, 570.446 )

[node name="enemigo18" parent="enemigos" instance=ExtResource( 9 )]
position = Vector2( 3444.95, 570.446 )

[node name="enemigo19" parent="enemigos" instance=ExtResource( 9 )]
position = Vector2( 3674.07, 568.938 )

[node name="enemigo20" parent="enemigos" instance=ExtResource( 9 )]
position = Vector2( 3530.87, 169.493 )

[node name="enemigo21" parent="enemigos" instance=ExtResource( 9 )]
position = Vector2( 4628.21, 574.968 )

[node name="enemigo22" parent="enemigos" instance=ExtResource( 9 )]
position = Vector2( 4855.82, 1113.09 )

[node name="enemigo23" parent="enemigos" instance=ExtResource( 9 )]
position = Vector2( 5000.53, 926.178 )

[node name="enemigo24" parent="enemigos" instance=ExtResource( 9 )]
position = Vector2( 5033.69, 1122.13 )

[node name="enemigo25" parent="enemigos" instance=ExtResource( 9 )]
position = Vector2( 4818.14, 911.104 )
[connection signal="timeout" from="player/temp" to="player" method="_on_temp_timeout"]
